<?xml version="1.0" encoding="UTF-8" standalone="no"?>
<!-- Created with Inkscape (http://www.inkscape.org/) -->

<svg
   version="1.1"
   id="svg1"
   width="458.07617"
   height="337.96451"
   viewBox="0 0 458.07617 337.96451"
   sodipodi:docname="svg_binary_replacement1_bustslogo.svg"
   inkscape:version="1.3 (1:1.3+202307231459+0e150ed6c4)"
   xmlns:inkscape="http://www.inkscape.org/namespaces/inkscape"
   xmlns:sodipodi="http://sodipodi.sourceforge.net/DTD/sodipodi-0.dtd"
   xmlns="http://www.w3.org/2000/svg"
   xmlns:svg="http://www.w3.org/2000/svg">
  <defs
     id="defs1" />
  <sodipodi:namedview
     id="namedview1"
     pagecolor="#ffffff"
     bordercolor="#666666"
     borderopacity="1.0"
     inkscape:showpageshadow="2"
     inkscape:pageopacity="0.0"
     inkscape:pagecheckerboard="0"
     inkscape:deskcolor="#d1d1d1"
     inkscape:zoom="1.0491266"
     inkscape:cx="195.87722"
     inkscape:cy="161.56296"
     inkscape:window-width="1920"
     inkscape:window-height="1012"
     inkscape:window-x="0"
     inkscape:window-y="0"
     inkscape:window-maximized="1"
     inkscape:current-layer="g1" />
  <g
     inkscape:groupmode="layer"
     inkscape:label="Image"
     id="g1"
     transform="translate(-116.49219,-0.92131231)">
    <path
       style="fill:#f37b20;fill-opacity:1"
       d="m 469.02344,201.21875 c -13.58823,0.15327 -27.1768,0.28851 -40.76375,0.53492 -5.36384,0.10003 -10.73045,0.19136 -16.08621,0.51888 -3.673,0.22035 -7.33246,0.63241 -10.96887,1.19155 -3.35089,0.52527 -6.69031,1.14383 -9.9778,1.98452 -3.14801,0.78693 -6.26421,1.72227 -9.27309,2.94369 -2.46619,0.95709 -4.8753,2.0528 -7.30138,3.10574 -1.23606,0.68636 -2.09352,1.97937 -2.30104,3.37156 -0.60407,3.43617 -0.68061,6.98855 0.0196,10.41656 0.87811,4.64964 2.59344,9.07785 4.14109,13.53251 1.84383,5.2223 3.72439,10.43296 5.44099,15.69876 1.2349,4.0228 1.69161,8.23773 1.83215,12.42983 0.27862,8.351 0.58672,16.7014 0.74601,25.05581 0.12702,5.59397 0.1957,11.19065 0.44739,16.78062 0.28433,3.86006 1.05796,7.68981 2.37609,11.33162 0.39301,1.02285 0.67768,2.13246 1.41097,2.97843 0.74556,0.71581 1.84527,0.77931 2.82171,0.72904 10.99606,-0.0143 21.99245,-9.5e-4 32.98864,-0.005 49.97207,0.003 99.94414,0.005 149.91622,0.008 -0.0699,-9.16611 -0.0939,-18.33309 -0.30141,-27.49749 -0.10602,-5.58817 -0.56695,-11.16638 -1.26817,-16.71005 -0.60768,-4.73581 -1.46625,-9.44313 -2.68295,-14.06184 -0.66797,-2.52192 -1.42985,-5.01949 -2.31656,-7.47348 -2.26327,-6.34116 -5.41783,-12.3707 -9.41226,-17.79438 -2.11621,-2.88707 -4.48025,-5.58079 -6.86249,-8.24869 -2.4053,-2.67138 -4.88999,-5.27855 -7.59117,-7.65445 -3.97364,-3.52983 -8.30683,-6.64384 -12.84624,-9.40337 -6.44473,-3.8785 -13.3536,-6.98151 -20.5293,-9.23571 -7.27949,-2.27845 -14.82973,-3.71912 -22.44818,-4.15843 -2.79977,-0.17783 -5.60549,-0.25164 -8.40993,-0.31353 -3.59968,-0.0645 -7.19995,-0.0658 -10.80009,-0.056 z"
       id="path4" />
    <path
       style="fill:#fec709;fill-opacity:1"
       d="m 251.35352,197.62891 c -12.8912,0.0495 -25.78238,0.11256 -38.67327,0.2154 -3.72725,0.036 -7.45556,0.12619 -11.17427,0.39345 -2.69144,0.19533 -5.37312,0.51547 -8.03737,0.94395 -4.25622,0.68502 -8.48226,1.61971 -12.56656,3.01245 -2.28589,0.75239 -4.51741,1.66474 -6.69233,2.69389 -3.08144,1.48322 -6.03589,3.24431 -8.73957,5.3429 -3.24672,2.48099 -6.34044,5.15522 -9.38132,7.88234 -2.17329,1.97661 -4.27627,4.03146 -6.2805,6.17953 -2.25935,2.40918 -4.40456,4.92506 -6.42609,7.537 -5.84761,7.54052 -10.68865,15.84488 -14.51649,24.58113 -3.27777,7.50432 -5.91833,15.29034 -7.80778,23.25986 -1.47477,6.17011 -2.56976,12.4316 -3.25235,18.73896 -0.34412,3.11611 -0.57841,6.24393 -0.71648,9.37599 -0.18333,3.53938 -0.27542,7.08258 -0.39773,10.6244 0.17715,2.00824 0.82847,4.01546 2.10742,5.59765 1.45482,1.61711 3.47584,2.65815 5.59179,3.09842 4.14359,0.86967 8.40511,0.79732 12.61384,0.6413 5.65607,-0.18407 11.31213,-0.36815 16.9682,-0.55222 6.47731,0.52954 12.95596,1.0824 19.4522,1.31855 17.3485,0.75128 34.69758,1.48972 52.0457,2.24903 10.07086,0.48809 20.138,1.04946 30.20431,1.62248 10.01037,0.60141 20.01597,1.27926 30.02089,1.96446 10.13285,0.71913 20.26541,1.44472 30.39008,2.27262 10.35045,0.82333 20.69892,1.67171 31.04837,2.50727 1.33337,0.096 2.70522,0.23981 4.00492,-0.16655 2.12468,-0.59448 3.89036,-2.25876 4.70006,-4.30124 0.78186,-1.88565 0.98186,-3.93903 1.31511,-5.93537 0.14393,-2.52297 0.0903,-5.05237 -0.0712,-7.57312 -0.34336,-5.87275 -0.70217,-11.74507 -0.92103,-17.62414 -0.10511,-2.20436 -0.11163,-4.43795 -0.65517,-6.59093 -0.56552,-2.50016 -0.64605,-5.07173 -0.91154,-7.61299 -0.50783,-5.4701 -0.99849,-10.94209 -1.51699,-16.41101 -0.39948,-3.27331 -0.87401,-6.5386 -1.48968,-9.7786 -0.88559,-4.71095 -2.03421,-9.37713 -3.55214,-13.92587 -1.57094,-4.71909 -3.54187,-9.31063 -5.97233,-13.65243 -1.87638,-3.36938 -4.06319,-6.56903 -6.56494,-9.50584 -1.89421,-2.2547 -3.91791,-4.39729 -5.95367,-6.52386 -2.13325,-2.21786 -4.32828,-4.38076 -6.65279,-6.39843 -3.94368,-3.35519 -8.41171,-6.04992 -13.0745,-8.27973 -4.03739,-1.89972 -8.26341,-3.38854 -12.58885,-4.48034 -4.65057,-1.1733 -9.40028,-1.96051 -14.18195,-2.33679 -4.03737,-0.29143 -8.08746,-0.34384 -12.13384,-0.37321 -6.52006,-0.0337 -13.04007,-0.0385 -19.5602,-0.0304 z"
       id="path3" />
    <path
       style="fill:#f37b20;fill-opacity:1"
       d="m 452.88672,6.8964844 c -3.0406,0.2982539 -6.04656,0.8607595 -9.05656,1.370434 -4.11336,0.7498251 -8.17689,1.7843966 -12.12539,3.1635566 -7.1692,2.410016 -14.02403,5.72749 -20.41556,9.766621 -3.99719,2.50919 -7.80013,5.321687 -11.41214,8.357784 -3.22887,2.736085 -6.29993,5.658421 -9.18981,8.750546 -2.19976,2.347324 -4.30096,4.787896 -6.28352,7.321461 -2.10222,2.673941 -4.07378,5.449762 -5.91937,8.306702 -3.23865,5.018438 -6.078,10.297232 -8.43395,15.786859 -1.76626,4.141302 -3.32189,8.378921 -4.52664,12.718836 -1.20933,4.324301 -2.1295,8.730085 -2.73256,13.179927 -0.66173,4.817019 -0.92328,9.688939 -0.76731,14.549019 0.15231,4.93887 0.73864,9.86265 1.70366,14.70783 1.19626,5.82023 3.14496,11.49456 5.89181,16.76777 2.94236,5.73636 6.65592,11.07045 10.95316,15.87309 3.37711,3.78582 7.16695,7.19004 11.19915,10.26382 6.16243,4.68706 12.91023,8.59518 20.0069,11.68472 3.53108,1.52468 7.15345,2.83559 10.8355,3.94627 2.98207,0.9022 6.00209,1.68251 9.05026,2.32746 5.95561,1.2502 12.00681,2.07949 18.09018,2.32277 2.40442,0.11149 4.81338,0.12066 7.21932,0.0571 7.17634,-0.18715 14.34596,-1.1147 21.29422,-2.93658 4.79443,-1.24837 9.45557,-2.99642 13.91119,-5.15964 4.98984,-2.41789 9.70634,-5.38019 14.13138,-8.71669 3.43053,-2.60474 6.68275,-5.44557 9.70811,-8.51208 2.62893,-2.66399 5.09127,-5.49219 7.37765,-8.45524 3.56371,-4.62419 6.72186,-9.56369 9.39793,-14.75305 3.00554,-5.85605 5.41356,-12.01939 7.18711,-18.35793 2.13555,-7.72265 3.25588,-15.73108 3.25893,-23.745315 0.0105,-2.836022 -0.13311,-5.672406 -0.41444,-8.494261 -0.23221,-2.259658 -0.5649,-4.508066 -0.99675,-6.738188 -1.02113,-5.442364 -2.2485,-10.84753 -3.71422,-16.187572 -0.97246,-3.512451 -2.12028,-6.977989 -3.50037,-10.352211 -2.09012,-5.123146 -4.56721,-10.095364 -7.48734,-14.797159 -2.8287,-4.5231 -6.14021,-8.745849 -9.85754,-12.572252 -3.7664,-3.859157 -7.99653,-7.277134 -12.63445,-10.035609 -2.94447,-1.760378 -6.02664,-3.289933 -9.20802,-4.573504 -4.37837,-1.778773 -8.9136,-3.167609 -13.53279,-4.1647822 -3.49615,-0.7524266 -7.03401,-1.3056053 -10.58931,-1.68949 -4.16115,-0.4620822 -8.34552,-0.6546749 -12.52769,-0.807525 -1.81851,-0.065203 -3.63743,-0.1397482 -5.45632,-0.1817558 -0.1448,0.00275 -0.28961,0.0055 -0.43441,0.00825 z"
       id="path2" />
    <path
       style="fill:#fec709;fill-opacity:1"
       d="m 219.40625,0.97460938 c -3.92384,0.19412092 -7.84822,0.45648382 -11.74736,0.94588652 -1.50193,0.2084909 -2.97718,0.5722078 -4.45775,0.893428 -4.59386,1.067215 -9.07349,2.6321739 -13.31562,4.6949075 -5.82395,2.8156126 -11.24555,6.4453246 -16.12354,10.6905456 -4.47167,3.879761 -8.47597,8.288033 -11.96887,13.065793 -3.05307,4.135977 -5.72712,8.549189 -8.01229,13.153442 -2.17512,4.393672 -3.99372,8.962775 -5.43928,13.647411 -1.52101,5.016265 -2.63513,10.160697 -3.25177,15.367682 -0.54772,4.536439 -0.53736,9.113597 -0.53964,13.675628 0.0234,4.977243 0.0432,9.95512 0.20387,14.930267 0.16137,5.13656 0.55507,10.28696 1.62805,15.32179 0.71736,3.35415 1.68584,6.66551 3.04568,9.8183 1.70115,3.60673 3.75146,7.03396 5.80301,10.44908 1.90789,3.15832 3.8545,6.29736 5.98214,9.31337 3.28519,4.6271 7.01712,8.93079 11.05521,12.91489 6.83639,6.69852 14.73435,12.33066 23.35756,16.49415 4.30462,2.07316 8.79097,3.77576 13.4063,5.01635 4.41165,1.19584 8.95522,1.91558 13.5244,2.08609 3.10556,0.14323 6.22138,0.0363 9.31256,-0.29062 2.22853,-0.25369 4.44735,-0.61111 6.63042,-1.12805 3.98942,-0.94357 7.80964,-2.45628 11.6439,-3.8818 3.68002,-1.41751 7.33567,-2.89835 10.96993,-4.4294 4.77639,-2.0181 9.49293,-4.17895 14.12577,-6.50815 5.61141,-2.84645 11.10133,-5.95614 16.27966,-9.53696 3.03769,-2.13208 6.01411,-4.35907 8.80437,-6.80912 2.98279,-2.5899 5.78836,-5.39033 8.33831,-8.40864 4.75677,-5.64977 8.60339,-12.10399 11.0418,-19.08751 1.31818,-3.8433 2.31433,-7.79432 3.06756,-11.78571 1.10327,-5.91179 1.57082,-11.943856 1.35205,-17.95453 -0.0662,-2.351565 -0.24694,-4.699628 -0.5118,-7.036836 -0.29392,-2.579091 -0.70499,-5.144777 -1.228,-7.687174 -1.09396,-5.410309 -2.7727,-10.695435 -4.91075,-15.782069 -1.29144,-3.055457 -2.76017,-6.035186 -4.38762,-8.925655 -1.85129,-3.261805 -3.85096,-6.445402 -6.1082,-9.443267 -2.22631,-2.977851 -4.66569,-5.796111 -7.2902,-8.429759 -1.60207,-1.603308 -3.27924,-3.129926 -4.96773,-4.641233 -2.6217,-2.327037 -5.30459,-4.585333 -8.04063,-6.776605 -3.49295,-2.787309 -7.12929,-5.394409 -10.88877,-7.810175 -3.50823,-2.238254 -7.11828,-4.320163 -10.83316,-6.196722 -9.13816,-4.5892297 -18.98261,-7.8752396 -29.1373,-9.2186152 -4.77732,-0.6254968 -9.60349,-0.69339555 -14.4146,-0.72196721 -0.66589,0.003852 -1.33178,0.007705 -1.99767,0.0115568 z"
       id="path1" />
  </g>
</svg>
