<?xml version="1.0" encoding="utf-8"?>
<!-- Created with Inkscape (http://www.inkscape.org/) --><svg:svg height="396.85068" id="8-back_svg1" sodipodi:docname="8-back.pdf" version="1.1" viewBox="0 0 559.37067 396.85068" width="559.37067" xmlns="http://www.w3.org/2000/svg" xmlns:inkscape="http://www.inkscape.org/namespaces/inkscape" xmlns:sodipodi="http://sodipodi.sourceforge.net/DTD/sodipodi-0.dtd" xmlns:svg="http://www.w3.org/2000/svg" xmlns:xlink="http://www.w3.org/1999/xlink">
<svg:defs id="8-back_defs1">
<svg:mask height="1" id="8-back_mask1" maskUnits="userSpaceOnUse" width="1" x="0" y="0">
<svg:image height="1" id="8-back_image1" preserveAspectRatio="none" style="image-rendering:optimizeSpeed" width="1" xlink:href="data:image/png;base64,iVBORw0KGgoAAAANSUhEUgAAA0kAAAJTAQMAAADnjc9KAAAABlBMVEX///88PDwkL8ryAAAA80lE QVR42u3NMQEAAAjAoEU3uin0ggLUl0mlUqlUKpVKpVKpVCqVSqVSqVQqlUqlUqlUKpVKpVKpVCqV SqVSqVQqlUqlUqlUKpVKpVKpVCqVSqVSqVQqlUqlUqlUKpVKpVKpVCqVSqVSqVQqlUqlUqlUKpVK pVKpVCqVSqVSqVQqlUqlUqlUKpVKpVKpVCqVSqVSqVQqlUqlUqlUKpVKpVKpVCqVSqVSqVQqlUql UqlUKpVKpVKpVCqVSqVSqVQqlUqlUqlUKpVKpVKpVCqVSqVSqVQqlUqlUqlUKpVKpVKpVCqVSqVS qVQqlUqlUqlUqrNqAUM0KZC3lILdAAAAAElFTkSuQmCC "/>
</svg:mask>
<svg:clipPath clipPathUnits="userSpaceOnUse" id="8-back_clipPath2">
<svg:path clip-rule="evenodd" d="M 0,0 H 419.528 V 297.638 H 0 Z" id="8-back_path2" transform="matrix(0.00237815,0,0,-0.00335979,0.00123958,0.99999994)"/>
</svg:clipPath>
<svg:clipPath clipPathUnits="userSpaceOnUse" id="8-back_clipPath4">
<svg:path clip-rule="evenodd" d="M 0,0 H 419.528 V 297.638 H 0 Z" id="8-back_path4"/>
</svg:clipPath>
<svg:mask height="1" id="8-back_mask4" maskUnits="userSpaceOnUse" width="1" x="0" y="0">
<svg:image height="1" id="8-back_image4" preserveAspectRatio="none" style="image-rendering:optimizeSpeed" width="1" xlink:href="data:image/png;base64,iVBORw0KGgoAAAANSUhEUgAAAcoAAAFRCAMAAADD4x1uAAADAFBMVEX///+Ghob9/f0CAgL+/v7k 5OQrKysAAAAEBAQBAQEDAwP8/Pz29vb7+/vw8PAFBQX39/f4+PgMDAwGBgYoKCj5+fmWlpYtLS2D g4PNzc0JCQn6+voHBwcICAgSEhILCwsKCgoODg4PDw/r6+vp6enx8fHy8vL19fUXFxfv7+8RERHu 7u4aGhoNDQ0QEBAVFRUTExPz8/Pt7e3g4OAUFBTb29vs7Ozo6OgYGBgeHh4ZGRnq6upBQUE1NTUb Gxvl5eX09PTn5+chISEcHBzj4+M6OjopKSnLy8vExMTf39/m5ube3t4uLi4fHx8jIyMlJSVOTk7J yckdHR2VlZXT09OAgIAwMDCsrKwxMTEqKirY2NjAwMBLS0teXl6fn5/X19fQ0NAgICDh4eEsLCzU 1NQyMjI4ODja2to5OTk2NjagoKCrq6vS0tKtra3d3d1wcHAWFhZ0dHQ9PT2Tk5NAQEDIyMhFRUWF hYWEhITi4uLR0dHFxcVpaWm/v7+bm5ttbW03NzeOjo6lpaUiIiJfX19CQkJYWFizs7PPz8/c3Nyy srJ5eXnMzMzHx8d/f388PDxJSUlSUlLV1dUmJiZQUFBXV1fGxsYnJye6urrOzs5ERESwsLDW1tY+ Pj5GRka7u7uJiYlHR0e2traHh4e8vLydnZ17e3skJCRqampVVVXKysqMjIw0NDS3t7dTU1MzMzMv Ly++vr5ubm6SkpK5ubmBgYGYmJiurq5nZ2e9vb2hoaF6enqIiIi4uLiqqqo/Pz+QkJCkpKRNTU18 fHxaWlp+fn6amppZWVmenp5RUVGcnJx4eHivr69jY2PCwsKUlJSRkZGjo6Onp6e1tbWmpqaxsbFW VlZ2dnZISEhmZmZPT087OztxcXFUVFRDQ0Nra2tsbGxhYWGPj49zc3NbW1vBwcFgYGBvb29MTEx3 d3eoqKjZ2dldXV2NjY2Xl5dkZGRiYmJ9fX2KioqZmZm0tLTDw8NlZWVycnKCgoKLi4uioqJoaGip qalKSkp1dXVcXFyZ4dfuAAAgAElEQVR42uzc+VdTZx4G8PfcXNLchCSEGMWQkIRA2DeBsAko+66C YJFUagVkE+qCVEAUS1E2UURlwKpUQMAFoSJlqBsuqAgjomjV0tZlWnB0XNHq0Rlt+8PMnDOnmNzl 5Ryf/+A5n/ve95v33hvwAe7BMBqTK5QZmHqEhm2lR8XHN7snJP6WhKS9zfFRIfStYaEepraGUj6D ScOwD94HlwD8JfkSaxuXkKHBl8W/5s5pyVpYGOhkrPM22gq3FcEL45pq55zb05nTXeO+29nhjSft vQKclFzbGQmq/Gd6S5PbK7dkpRlpsxDwH0FZPIVTWuqWyvYXE3cW53RfTZhgKnq/MKGjZIplliE1 vZF1tXE+TnIzhQmP/V+OfwRh80wUZkqjIEf/oseR33S5u5hLRMz3FhBRikNXn/2hbeKip44KMLag 8tin53O/vZWvcp+v+35tQkLJEDvEd+sdKUnTkisEYKxBBQqlZ2B53/HIfyWG64oY45UTYzK4fJFY LBQKpRKJRCoVCsVikUjE53O5jLfD3fihxAzoVflt/aVOQK2wtQLW7Fq1fxnddlzOQExd0/l+8den br+qmlnRWHCye3DjTNWG5VOPLvF1jz8QQt8dbivFxgklw/WLZ/NiYrUUiHqUgGXsubBk4FB6VbiQ iY2z1Sh9M+j98o/WUzdzj48sKtrXkp1ReqeyaNHIi9yJX+/JPFV8JX10c1Wzl7mYS+zyxIOSZhtS 8OigDxtoGO3CffdGq+g2jPECSZN5+yUNVXyU/jxizUBAnP10JWeaAP3t0jThKIMCHWNT/QNWdnw1 Jznv4Y+3VcuSJoV5GIgxeCmZpttPtMfJWUDj6MvvPu3veRU6Ln6dYAyJi2/B65sjO7JL4gp93Dg6 bPR/BnUBT9uOYzHFLeiTu6n+fU+OH6t/OTh0wFJCzEigMeWbXbJxT58S4BTEKOZC79GtNlzY12M4 PVHVGzmvY67xmDcRi7sB1Wd2vs7v8o321oWPkmm5vb49zgzFixKgU2Jbknu6wsQwSzJMrz/4rK6o b12wkvcO3QRmQWmzm2KezFv/UaIpFy5Kpi198NdsDn6Qvx8IKQOW9paFOUC6MvkOnycNRqZkyRFU jeIoiiJTSi49HFwd9qkYHkqGy8z1i1I5APdwtu2o66nYJIRwz6Tp0s8Onx7w99HR4GK1s28aeFw/ +KEBAw5Kmsyve2IJBwEEBGUrS++P+oZaQzbNihwmVDU8LpWzEc3uRCjCNiqZ90wV5W3OpZ6S4TrU uah8GiAqim2HD9165QXVXVYSUtDWXxurwKWgiWPMyLEbXTPEVFPSLFU7ZxmzAHFBBPLSpSe36sJy AMSQeZe1rim308frPoTomwRl3/8p3oFPKSXTWXWhyQ4QHLvUkVtTP4Vjx+R71bRGVAYLcL73xFVn NvoJKaSkuW7Yk6pDtCRA9d2ePtrgzIcA0mDS7a+znUxYuDdUxPZ/F4/HTADUXJO/HPMnXvJtVWP/ +/kHJBQvTEz2ZpM8kkXMYMAuvLz+2gw+NZQ016v3UrUBKUG17S+n7zWn9Mk0w8E3PSV2Cg8lpiLb Yt2Zn/ykNAooGa6qvCYdQFbQ6fvaKD39kUR/n7nPEyGwomDhkddVoXzSKTHnq/cIutf8n0nP7OPc fD+qzthpVs0N/XEWLEIrCoyaIgo2CUmmxKyrHpG4Jn+/Bc29+HOZJSWW4t2qh5cDWYRX5JX/9WWz NY1MSkyW0FZiB0gOzzPm3jVnCjZMCb03ebKbPgkVdVZ89drXmkRKzNq3s2UaID92H0/spluRvDAx XfcfjwTqk1RRebg40ZBGFiVmmHAqQAmoiIlj9a0ka3IpDd2LOzzZpM0EbrXFvuZkUYriF3fYAYpi cXC4zJDEdUkzKBuuVJDZUH74irvaL3S9I2VozmE5oCzyAL0yc9IsMdOhzFI3UgsiRpU3oqzIoKTJ ls8zQqmjBDrZp5ZYk2TJt3y1a5Y+2Q3dzjeEiEmgtEoqzmADKmORrbeEnHXJ3d0YsY5DekFkRfU3 ap6uvxPl/JfVnoDa8LacKiNjXYrDTubGIlQ0DLr4YAKfYEpMd9mhYB2KKYFZgN6XBoRbCkN6+2Op 6cpKS3kwQ0gsJXdCa4A+oDy80oe+VgQPPOIFOUfsEYoKokH9BfNphFK63h6ZDiCIWUz9XmIP160T bpwPpO6qReaefiUhkpLpu9SRDQMlqmhpjRYRecST0HnQCaGwof7sE5uYxFEKw3JWagM44vYkPUpI GKXN0RO1lEoCYJzS6MIgjNJ7f10wJJIAUVYSty6lS573KamVBKysvO2GRFEyEh79RQGgidva1igp IZJWUYtblCjVe4jyzjMvGjGUmHP+DjsUHkpEXplOJ2Jdchc0nHeivijLqW75ux6FjJHSYGpeGoAq 8rU50fi/7sywLLhUCMEvLiAo7dwrIoKSdmB4pQIuSsSoqNcD76MCzGYoz1EAxxYyMOpNBCX31SUf NoAsWuc2mOJsKUqIDIBkTGcFRpS925+mjI3SYTRDAJsk0J+86wt8j32YXqtiLGCZCLRrG6KluFMK J7UVQif5dsxbvAnPF9cx78EROTw7iGPyZme8KWku378wgo8SsIzWbAzH8as9g4pcRxY89UxmfxuF 4UzJTGoLUAAYLdftWW6Im6Ru0qNyHkz1plVXWDPxpRRVpGixYaREORmddLx+kQjj0ztM4KpXMhwl w5USc8jxFwAogxq3b3bF5/tL5vzR9hUIXPXskzd74EopCcm0B5AGib1QY46LpLPqXCAPsnaKjBPR uFJ6b3wxBVZKwMmu98PjpXXDo3r+0G0iiGfdlzQcKRnu9X3a0FKy3C6qcPiPQ+6C4TtKFLp2OgcL xl7uzyklZy8Fs6ClBIh/T7PGz0gwj5PVHATCdut6QqT4UdqsmqVA4aUETu293ppSGmyIcISy4yfn 9rviRsmN3ukJsyRgB96/ruHjLuaB55Ph3EM4dzpD8KJkuHatUQCow1v5Ty+NXtti2uw/b4ZA2U1g nzzExIlS6H7ljgBuSlC4VOWsyeQjS2xLhfc6PSnDiVLWdX8bG3JKs6f1CzT4QYKFNQwYQVsubthP ig+l7d+LpkMuCVjyi1c1uMNKq5K14L1atU5fG+MT9j+jNP05ww52SoCUjlqq+4QEE25qzYD4vmPW 0ROFD2V4ZBoLekpQuFPt7y6ZLvvP+UBcTT/4zHIGHpS0CXly+CWBvPq7GWrulvzVmbOgHtEVOzaL 8aAU+tbZjQNKXuzflqm5Wxo2rrWA+r6DpDYY4EBJcz6boj0OKFHjg7fV+1KP+/niLBTucmn1YQzN KUX0H3YIwHiwLO9U6/tSpmnNoSDIu2ndvG6oOaXs6GdN7PFACYIO1TiosSz5H17p4EBezai/8d/k nflfzfkex0/f7zGf8z3nVOe0aFWHNu2LaE9ItqTQooWSUJapLBU3CV1bNZaRQRkahoYsSWXIyBSX 2yV0BzHIFheZa5lrXA/3NveH+VGf7/mc0/m8b++/4Lwfz+/nc17v5fN++3DEKN0unItlQKC0Kb8b osSxdG5rDTaj3DX7ys9DxcQovX/ZMVQIAqVs7pkC/s9L2REdhdq0O2g3aleZLjFKn4wiWxAkBZIh q//Mu/mO7T8zP5h617QHXQk3J0Y5IWutRACE5ba8gbzla1hCrT0Aeb7nuSUpSjaqr4cAio0xNuDb R6koO2Uio98z7SVVFqQoTRe2ysCg9Ht9h2/yzu1hsxcEVTeoOIkjQykeWPFGGwxKnR3tYfyOJefz MVEOwTWvM6mWZCj7hdzNlYBBKS05PpKfhtWNuT8MhGseDRcwCl2fQqm3/NsiOCjNBu8N5zUuVuwa 3gpDn9uU30vWJULp4q+1jQGDUuhR2Z7OS/TEZMTBkALSCK0fTIlQWuw+sAQOSoHM5LYTH5QObRef mQG5cKa2OROh9HyyYBMglMLpkcP5oAzMu2QrBHLh1D92IUI5cOO5Z0I4KAVW+Xy6tbgJxvOhfKjy wnsWRCidGq+Mg4TSZlkmjycHooBORyieMWufehKhnPj4w3RAJAW2Hzbi98OyA+KvBoFxbWyxLxnK l819IKG0q/yTAfaTA/19N6vhpLKsTq3kSFAm7S/3goRSdml9KnaSoP+t4xGGYFzzaDmiS4Iy7EGc IySU8ojsH7Df7rteOPcMTlbSflmmMwnKzd9GuENCabjmBf7AkBE33wyDE2nZNMR3uyf5UygNIhNl kFCaTXsdboGLcl/TXDs48tw9ujFJTIBySvYmM0gotdd+X+GKK2CPLLAGlP4IulY3RZ8AZfKrwRJQ KMc1bMFFaV7WYAfINWnu0wBTApRHWoKFoFCOaT2Pi9KlbYcckGvyIuMySwKUKTVWkEgKJH2iEzD7 e9jAhGpQKEd9469HgDJgKigBK2D8KuswhzDoG9x7ZNiLUC5fYQgKpVAnNw9zWIhlwMkiSJJOHqG1 kATlzH9I/l9ROmx/lajdi1AuXyGHdcFa4V6w3O/1O0kvQnlwrw0s2ROMK3s4n/bTOUwvQhnT6QcK pfba95gpAjasqtpP2ItQRi0YBgqlWezFC254KA1Oltj0JpRHzuSAShGYldZg5mDZz96tkQl6EUpo iTvDJS038DphxaGvpmn3JpRTsmeACix/j6Px6pXiqPvzGVCufadFlCIwaNomheSvdPSPM/XwUKZc zhH0plM54elSHUj+2p14EIPXcic+2AlL0clLIjNJ0unDgfX22FXnJeNN7xEHLINVKZDFPU1VEKB0 etgAqg82qPzfmB13ouVpoO4bgbT+rhFJ6dkz/tgMSOLAfd3jlXgvLEUjr9qBQhn09/YJIgKUzreK IyChtJ2zJRCvpVmUOQ9WernLNR+WAKX5lLxcSNGXTWsb5hgmUWYtrPpdl2u+JB13Yqfz1yAV9WzS dmK2wYq+OA3rVOqk7ew2j/XJsRLOu6MhnUqdc7cwx0+KZl+xhXUqz92yJEIpnvk9pEyldX4o5qM8 ceoyWEUfx5ZQERFKlHzMCo7ukcxqWok57QVcisBLayXhNK2VTZPBpO6ENpf2427KER+eBOqNGjNr vTchSqe6SmsoSQLtnKs/ueGijGkZAynMkkYQvnpGyOJs31IodS6pySt/3IXsYqNTmwBFI4zXuof9 CVEqDl9/CyUcsa3HzcAixIY0FQbBQWkYe/GsHiFKkVMFmH58j/fhrrhTJdjN1x/Zw0kvSxdlZ5oS okSKkXuhBGBD8w9ij2lmh9+9Bughl019Vag+KUp2864+QL7e2PVJ2IMn2RH/WTEITrOL49XuM7Dd b//xfVAIIxyRj77piUsSca5PLpfCQWndudCBI0bp0jgnGILPkmFzDmHPIUBoQJlxIZycZB8tnBH/ 3aFUZL5bBEG2yxJf+PMYIWoalbEUTKWA2fRgIEeOUnf8lmgIN6xt9edGPNYEi4b/egJKYMnY70nA 6T7rDiVnmnIGQsLHOu2CE58Bd54Vq6FEWfLS1zfMVYCyS/hkLAFwLOdnpejxmZyuuNMKJUfgvud6 jFglKPUqTtOv22WPXvJb9yyOAfMgxu/9zxM5laDUX168VEa5t2aDOwtMES+bUDxZDiNiztl1EEub d4+SG3Gogfb5aNbR7cN57mAfUVcOYjGFQDi5w1usGpRIEfoN7bNESyMP6/EjiTzDa0C8ABLa5Taq ZKvs/7JcnnVFVHeNCt0rz7vx3XioOPj0LQQNKx/8l+2sqlAi/Z0XqX6dJ9+UP5PvDickmnh+HYSA 2ebrDCPVoURhL3fQvIVsbGtjIF+SiLPMnAqh6BPc9wbmhDAslJYp72LpPZYSk49GSuzsZg125dD/ Z8kk/mufrgpRcg4P6z1olXvMkGh+W3/+aFzaH0d9P6HQ/s0hXEEnwAuoZ/+2jdbYUlpofESsDEqX DZdn0J5Sl8+4P5tVKUrk9NMVWp9aBu/d6KkMSWS+ua6a9vdc1s0vk5BqUeqHfDSh8o+FsdtTt1VX KZRc/4K9tG9aLc26NUDFKJHe2atjaWRpH3E8QA8pZ+zmSMqno2nHtXvrqholF/r0BIXpO8PCXYt5 Zwf+sPT2eg+a87DM2Kn+IqRqlMhz4atp1LktfVYT78sqSxJZLnwxl+YCtMfXHfuQ6lGKPStqafuE tZ+lPfQRKU0SiVY+n0dxpYBJNP6ivxpQIvTZyaV0pUckXtHtIfrKk0Sc80GtWdSmCRjHeYfSWbWg dLlzgKopE4zXV7dDTBGJsekJq6ltbbb9LjKUz5XDA6XYqWLeEIr8to07ObsfIjP9gMgiWpPq82vC eQXMPFAiXaMfR9MTiLmbZI10ISSJOIsNr4fSSVJW3Z4kUhdKZHEjfzItgZgsseXGAERsbFJehIzG gES+Nj+Anw7ghVLku7GVkp1kshkLnvhy5CiR5e6LzyhMLzODPiT4IvWhRCjs3lc0XLGMR+Gkjd6q IIlEW2/Os6YPpfuejhSFWlH2i/n4SPPfsGRo/T+3jxAjlZhz1PUi6jpDpJsOjHRh1YoSKZZraXrS hNBufnNGqoJDKjJL/0mzaCt2jXmPvShOaZTIYcOxRM067j6qc1WUM1KZcd4/pwVTBVKos+PxPrHa UbKB4cs02Ugh0Vn029mJIqRCY5N+qZbSpGKDRv3VgL+HAv46wefxvOkak7FMzrr1BU4sUqmZpxRH ULQdx2zbAX8lslj8USL90LvNXhoKL2XTT/+arKdikgi57dxlQo30kQzqjFdGnSuBkhsQU7VOI+eS cVxU8zykH1K5iQLjjyVSsuGRGRSdoNQfiEAZnWAac6+55x9cMLI+R423e+siNZjY6cuWRCpKl4x1 7X4jpXwUKOW5c1TVup5eT6Y9Pfd1XpkDUo+Jx7ddnkvBuWSGVnZE9Uc9h5JTxOQ1e/Wk6JO4z/pw u2C8M6cmlEg38MKxNZp/pmdVnhGgZMgsUNJz55iqNz04OsS29NqBVUp+rbghyfjw+6McNctS6PFo faqy5R5lUXady47asT3keJfcubzqsJMpp06USNd7d9boII2i1HmbnenM9jDKrnOZcrd2XE8oeInf mjlN4eNZpHZLL8guGaK5cym0L8lanK70r1ceJaeX/Le0WPWrPsOc8uNfGqWL1E8SsZ7+xUc1179k PzqrwE2sAZQImW9trDHRUetXzNgPHj21Y6QLh3rG3MoiSzT0f8lYXcpe7Erw20lQon4+uyPj1MnS LPjombo7/2Xv7P+Z3vs4PtvsFmNMbMzGGIZhl/u5mXITMblJ6MZNpeSmFOXeyTQit51QUY4cim6E nOSQON2QlFIpoo5Kpaucc7quOjfXOet6XHe/nOvRtu++Wz32+gv23vP9/rw/N+/v+12ljwRLMHJt SZZ07vCcqhdqmRhpoUQiqR4L53wk9FBCMFia0l9U76eOBFPk0oUsV/Av8bB21UXJ4rmsmCiRFq3N YzYSSZhua/mPp8tOMzGgkhTEpXNzN+hPslhWQtImMkyqKJGoJt6aAlugX73UDHwjzs6wHcCNyH89 F/jf2ZbhSgczY6r6/vrNMoqYvxsivuVNF0uuFQIbmCrpm3tepyIsMUhpCOfw8MwVLxAzplLBj6sR ekipoxScStZPxKVbA5UxoXTrxLb2p6eYODRSWsL57Xt/3U4VpOdJa6/HAQ7iH7YgQFiu5xlwvheg EkTlJW+7340c4BKR0hRm8fac7BRQOuUrHXqxNd8FgGMzBBjL8RrzjZEMcVdZKMHNqSLhuwBPsi4G KV3BdB3uKUS4Svx+HatSkD3YpAvEAgQByHSU//2BF8dp4mx/4Kppe0Nv3L280RGFlAHBmLXNP3pL uERW7eXBkIA8YPwWKJRIFNXzTsOJWEOSaH4MV1alFYS+233KxZQIQ8qE0BSXuoUOHzWsxCJT2Si4 cWSFBUCeCwHOdJwD+287d71liXImU4tOGdcsmq+Vyunj/9zjeTRrfpVuIJnHPDjNq7ezvAqw+hYA USIxVEfPVc9fRJqQoEI5MpSkErw55PIG9y14jEyRRML0/ErfPD7sawR8ZMIJrh07yhGWwPkuBGDb yc7zId3VxdFuH2s7VMX3+FdxnbzSQB2kDApNbCrLaRmLOGQNbGgaHqr+6wzbHshcAgHadD1HDfbT zrFiGgH+UVudaO+b3+1+UGVmjkHKpnCmDovqMtvPsQA8ZmJtM0bfePjpA7orgEjAkSlRybzORn5G cBpD7c9rueB0u9jitoSg87MejjikbAuvcfH7IH5KLCCN/kicdU/6vw7IA3oVgkjCcpR+IGJjQGbP WMQ6V/qfWE+g1fA1hwcPtGq4UGFIWZc6k5t7NSmoTVH8y2Ylmz09IwfCmIC7L0RSxqP1/Nm84ZbG rmrv4+lrY21sClmKHB8fRVbh2njtFO8sfrfCzP0VTBzyUxFaPyzg7pWj2uFptqJ+YAJXMygsvrWt me2gK4FLSYjkbMeRo2Kck1MDfp8Z6LnQ3j7aOJaQsPn2ldGegcmJ2fJ7facq7Slo5CckHXvE9t2T 729WR/qI9AgGZVScCEoq38AlS2RfAJGwK6NhOAu/Fcl1ZWVzU7yJiRHend9qV3Id9XVgnxTF/6YO Lnt26/v+b5fHx6Y5GRE+NjxJhpzE4P0JNyYvcvUkZTgEBPthRAumsbH94jwutykv0NiCgvokMf5n rVm0sa78adKO7PGM2I97qMUa2ni/aNn6dK4UYS+5S0kIeH+CIEJhMPQnTPHfdsBQOHVq4KZ9ze8u je+vSExTdPWhGdgyTAyt6KpqytB/CktSU1WiG1rTXFk2wftvDZXw+vIs1DGS3OBBkHKJBhTv4pmb Ws5LKmlpD8ru7z3I78ja71VQ4avo4+qqqBgdGxxZs/zcwf6gHc+beVN1m/wtJH1wlqMUHSYGp0Ok 2ntuZKde3P3om5nvv975/sLZn3u7EhJCe8euBN143FD0y+7UFX5kPEUHJ/kDlxyl2DshvKmlvR/X M2al84PtD+8FTB07dmzq5NW5ugP5ya2eUX/RASulyFECE6AYHE5dR5dIoeDNqVSquTlej0Ih6qqj QLyOlKP8bCRHKUcplxylXHKUcslRylHKJUcp12eBEqZrTt7i6BLo51/piVgkmk6vd871KK1l5+f3 PdiYuyE3t3VFWFOgsSleBy0HBhpKHXtELntu6vL8SPNkUYnWzp1awuqd1s6eLzSz43aF8vn8rl1r hoaGskePDOTMB+Q7V9kT5cQkjRKta2rmXrVoU/1szkBD+6U1/b17Op7sLa6p0RZWxdo18eEsH1sV OoFEopsYcDgcV9/gjFv9QQpF04NluTH+ZjJTv/45okTrI+pWJ4U87u7q8PaKPGSTyFrCsTWxoisJ L7qSKkH5f0qi4QJBCUY0Vnjk8usd1+Jebf09dZmxupwc8CjRRFNH95Wrpt/fPlwQbSLgQFJWxmKh AgDAFnNDsSQCQVXJxPfJrh+SppLDXExBypwYQfa3ZG4xdjRbHOgQ5e7fVFmlIaKqKv3z3N3d/RY7 Mk2pejoo2UIJIy8re70w2nsukmUNSoc4qMrSgohrcUdm5jzxIICEUR2W1c6d/HKQ9zozZ/LuQIhW zxejmqIpqP2VQmdISMnws5Ev59i5MbJU0ozBMxGrnrXz42lWqiQsWB/vYwmqbiq+baOZbK4xVULF l2gcEa9vaWzmvvLA4Bmt0Ss/jyXwq7O8j6eH27DsGCqiycSas/RleHiFdsSem0ENRTOD9SvzHC2p FBn4kgsVyH694+bReI4UGqlCGetODHX+UsaVyJcmKEuu88P789PDO7atSTicEhybuPRD8jcSOCxU LI+FY7FYZYIKJ3Gd1/WOru52raTVv23Ko6KlihJDJCPuHKkuZLgRpNJIHU6wsi3MGn3TuoWIATYe KVSX0/ceDbc0jnuvVTRgGLoJ9mGC9A/kogNVFqR9K0OGE8trXPP8PNvT3gKvK27NiKgo1aPYj97d 9rKW6lgnqGHwtR9e9y0GMOXALGNSByePNF7L0n7JcZN8l1Q1u3URoWcV/jFytRZhRgEfJRpljrjc ctTGVtojHeBqJr6He05y9YCorP1QdkWuqsvZ9lNNmhNDkP3hIK0uDNqStU92NUzvy43SV8egQUVp vuzkwO0aI5kYtAY38eq+ex8BQLoxrSy9P1Fy9la8LfgjcaD06OM/xbUUPaoPo4KHEo2x3JD0azpN ViZ4wumcmv6ZXFOYeBFJcegb6XmRYaPIkM4MRCzdmhMdHpGd6cHEifYRhtAo0aan7yicUJSpCcmk aH7IKncxboBg9q3lSa9CvVzVpO2WseNH3uSHidQ0VViUMHLy3dBwaxmbj4y11T47yxWx/RYaphN1 MeRg+lIaXfrTnEgGNhFDZ5KNUcJHppAo8WFTDYd9sBCZk2pF98R6skgkmTH105oZBliZSRiJ/AZe LcIYJ1GU+FN/7zrEkEGSApasWwt9+mjhQ9Kxbvj2cl8rGRqvhjUIPzf0fM5fyFVGqLHdZuzn3xrI JMgPf4BThFZ9oFAJE63LrCzlvWqzI8nYtGconXV0W+ZDDSZKMihR7uUX9tpCZFcqNZdmhWoyhjJj P7vUFm4ig2O74YzYtzeL/mDvvh+auvYAgJ8mF5ubEEiIWFYIEPZGGYqCikFkaQsogiCKsooDpAwV BygIWBEpoLhQRJwo1j7r1opaR4vroeK2DvrUPrfW+vp8Saw+q+K5Kj/ke8L5D7755Hvm955T8j4X UjKmZJuOiL4fpkmpMCUSuv1xvcN7PBBksPbKDJlANbsZiif0eLj7Wb0tt80pTePHhicIkWo3vn9T ajzzG8jNTofG8FU4HIvS72fOT2ljSrZD/OHq3nyk6o3nXlPbg/HczyFvjWo8j9daZvKl1+6dmSZp U0rbszOrPFhI9Rvl3m/NnuEMLcUD7hRZqnY4NgVbL3lJ2o6SLfFtqOoOQVIx+RuWdtCb2QBDGwzS i+Sr9PBPCSZdP6QAAA7BSURBVDV2HB7XVUS3EaWj16ktQCTlzWrU0flMn7k0Lh8tU/Fhg5Jey9nb waRNKGmxV+oDcx4C0zRX353KsO5HvH7mBgsVD4dyiczNXmvGaQNKSYcp1TJAkgjZbHkcwWxBRjtl hMpUfzLn/2BglA/90ZTaI5qTA/iQJBHLrijam9mhF6fbxYm6lKoHZGjnt+nqNNFHUop87uwsBJWT ij4pdnkZw/foTebvLxSqfkRWC3NXrpd8FCVnRflWmS6C1oQLj2QwKyzgrngU7gEhop5bDse9811d DKV2SP7kUh6C1wR+DesdmG1jJRWPArFitqhJ9dL5YEpu8MHJbgIEsXWu/rae0WMBbNdVM2woCCG5 D9kWZ/CBlGzrstBRfJCSyNA/OZrZuYL21N9GakIIidKqGltv8EGUtHHe7kgrBLTpFnaK8mS06xN8 Z3QAjJi6V4+N4H4IpcMivdV8BLZZfbHsK0anJGZnP1kIZJXlUdQ81+D9KbWDGtIt4EoiyqYxldFO Adf7UQWUmDRGP+3Lfl9KTvDlOisKQbaU3lhlz6SLlexpEgCJlC8Lv95KmWjrlE5lh2IR7GYYtn0X kxUJJ/6IP5R5Osv/j6tv38NrjZIWeS2r7AWckiXdkR3CYKOAPffKBncoQQliDqzyNnoPSpHP9R0W FHBKxPc/upbBMTSdUna/kIJjuf9kf5o5ZdczoQngJRGynJHvyWBf3WTQqdVwotUcub/MlcuUkuO1 TL8XfEnEH7lsEYOjS7bT+ToWnKgEE7ISbWlmlNyQO1WWBCSlfBJbvXI4g9FSNHuoHSBLu7qWehEz SqeoTeMREU13TNpUJkVbffXCAPVCvNgb5x0ZUYp8t/tpkkFJuVTvZTJa9rkcLgPUDRkuHNhBxIBS FHK7qjOLDEr5aJnly2C0NMtbMgxSyBbh+cFcLCVtHxXqT4qkfLSckT0Nn5bac7MnQTqX5YWllZhh KY18s9J7IWKaMOHIWQbfdzmfaYJ0dEDZzEp97VOnNynZfTbXaLHIoaRc6q4yqPMRnf1BACksnnTo Yud3U9JOGZs0KERQ443Ui8d/3kUHhUpBhc3/oiFJ9E5KcWJxhYAkSUSZ//TIB39AMkAvBlQ5GtX5 u6f29LsojaMf9GYRRYk0S3OS8GvL4MeNWqDSkqWxabYDu3VK7oDiBEOyJOVThO9P42819JyeLIP1 H+Zf+7Ze0iol7Tj/gB0irRkO+RF/E47x56HAykSpwB+u2rdKafRZywZd4ih5lS39sT2sxLdhFrD+ yCrySZx2a5SOZUNv8omjZMVknsXOYUVzm+cB+xdTgqY5xuxWKENSv7ZgEUdJxR46b4/b8WG7fh4u hBbY1/+q13krJW2QFNqdPEnFUVcLvvZO7HvABVpkgV+W27+VUjR8bxF5I6ViOTJhTSJ2844dsdsc WmAWfsURb6U0vbCkkkciJcvjeAn+4SCf3wuhbXOx3I/liem3UFpv3mFOkUiJBJN+xJ90ef9XXwju Tzrpurf2m5TciCWBfCIlEWvYRU/syrLrxQ024P7JYXq+Zm9Qso2X3rAiUxJRCQODxDjLlOsLAsBN +jRyn3Vjv05pEvf4IYtUStn9X61xW+qu+bmB4KYKFhX7BnFep3Re9WUgRSglkjZld8Rt+BivG5oA boDRlS3vIXqNkl5R6+dCqiRySc9MxH0EbVw2OQYcJSWsniN5jdJk3HJzYpMS6RYeOo27kcpxT6eR AE+F0m+nsP9GqT08eh6fWEnEsms6j1uOmC5eUwlwh6S09jPx3yh14u/qk5uUCAkbo3GPsejsykoX wosscONSZ/oVStp6zv4xBEvKV5abzbDHXHf7CeBF1jv55/7cVyn7XzphTjIlFTkF93aFSdLhIQAp tYbUxolepQz6ZIImyZTI7THu6mqDwedqAP4GgrCji8SvUHJ9l3tQRGel2ylvDKXRiOw6gNtdfI1j pw1eoTQoKRISnZRUYa0P7mODFdObAK6sqV4nlCtL9KKQ+VkjIpsy8B8RmE1YbrfycEuAobEePjP9 P6U4IrWSbEoU+8QLU0HJtp9zA+RFRQXNzi8padeMnJuEU2ocycM82UV7lh0HSRlzrg/9gpLtc/24 BuGUAZOjnN5dqkXbH4RJOWZfhPYLSm5QbaMN4ZQeW+dgrtaiu575J0jKLvcSJS8pE4+4CQmnNM/N x1wqSrv+eQwk5fg0xWsczylFi5O1WIRTSpOjcSXqZnkHQPZNGvd/tab/ojQ9uYVHuCTqXLS5L6aA 0uTsfZCUAQcU7x0pKdnDp+iTLom0qq4MwqxGjKZ2AvntU+9j+cEcJSUtic+MJJ7SsvHuVEwtrJFX KEhK8xvR0zg0Ui6N1x2QEU/ZKz1rNqaOQASUsnv47W9ESkpOx4szuhNPaaX/5CsJmVnpXnSxg5GS UrR2Xz8t4ikFE3bP1yGT0q7uXJBYSWk0Lofws0olZdjGDBxlEsxpj813qYMMlJTijOVd+GpAmbZY h8wZrM28F5QGe8I7U+1ZKR9p4tI6g1xnbZm5/jmlyaoqIWqn/PRT7twn7hBDs6zI8pWwFZQOt2ah dkrl9/uZIGfyVvq/9dBRUho3F6gDZWnaUhylvR5ISs1hR/OUlOyQxwvVgFI3ctOfuEdHvGFSWhX8 8pzSaESxmxpQ8v23luHq0/tkwczKgl+ed7A6vvcC1YCSFbDzpBmZlIJRGy84KChNd+V0UQdK89H5 eEopyLHj5uQS03ZKErKSF5tb5shVUC7K8VcHSo/wcizl7x4gKXvuXGeroLTNO9qlnfL5YmQfyMM+ 1l+UtFPJv8erA2Vv/LTHc6YbxB1MnsZ/Dioo2d7rhmqoBWUyNiu7XgmDWOPECkhWZCXNGb43N0AN KCnpgquOGErrsQUQj4hY0qJyZzml9orLyebqQOlSdQf3sax1SyUfZGg10a5ySqO+2U1SNaBEhg83 O5OZlUi3389OckqDwadqbNSBkjcrm1RKw4m35ZRsiW9muotaUFbgKc8NA1nabajMSrbDhbSRgnZK 0JS8itspckqzqK1qUNnDkLJFH+QjK5Tf5hQO4tqe/8mdpQ6U/IlPcZROKyfCvEa1dEpXOaXzrS1W qD0rn1++ebvGBmTB2pjH9hzESWnW56kHpd8lV9zdk9PrpCApu6TKKbW9xyaohSRihZ1zwlFGPzAH Odj4KyiNvtnWRT0oqYRTKeRSenOQJClTph6UyH+bNbGUh4O1kVnG7p5qQhnbQCxl7N2OYmR8frKH ulDWEkspyxpsglLu5ErbKV/OYE/ApNRY5iVBnucW2LVTvqC8VeQBk3J7kgSFFM+zUBtK3Az2f9Nr y3bhHrJRmfi22mG02QM7uOdklumQHI+2X31biMGvLoFnhERlZagloagMiPMekgWs5rt5igzT95mK jpCoZF0sQuh6ioA44yEZlapxt7QYkmvNWEZIVNq/jSB0PcW9PRu9WYcg6FiwUIkhIkd6hMQkg9ej 9YROT58+JV+CceiBxbsnskkxbJDUVFcXEIQAaV4g4OZmYgGDYZcrG1MJ3REspLM8MpltqIFk8ek6 ilwMk3ftnbGxetWqwMDSUvecKFPTdFPvSnMzIyMjTQdRbiZgvA6jqCRUwLJzMnNxDEnAxcnOoHG2 flNh6GLG8vKKij3Fp7LiTmQ1ZbdvmT9/Se20hDlRcybFezsaqaqBgKEDGKjz8AgIAJGAKAhIg3My LzfT4M/KRETlUAYMCmwbNqzvt7EpKdlfcu/vybvr1t2d+v/Dzd+/f694/nLZ4WW7D29dvPrRgQMH LoidytoVF5f160r2mauzz8xu37uzNjr6nMeqmQlVVTlz0j2Nk4wrHc341FRVHUSZGAZhpNq/DRvW UcksIyMjqyAEBrqKelpAIGegX1BQoKFhZecMApa+Tk7Nzc3L2TKL9hf1F9ksnHLt+PFrbW++1d95 /Pjf7h8LGh8duPAu7sqffX9yL2/0mObhsSql09jYs9JaXRqUZ7khgAkKBi7zDvdcSbxSTmEpBSkp KSE9DWdLS+cgp+k+Eanr16TtL7sxYULMrZX/Y2Njn+3Y9Ljw8ePTfYyfFuz5eeHYibi4XU1/wnO3 dy2aMX/+zqe9gavcZ+bMiY9/nedi7+WlYqRq6MAjTa/a2LE4jX80KtEbB8ycnFz8MrLAmJXXVQJl ZQMTDQ0LDQudIEtfS99EP//Jk/0nuyWLi/usd22dd+PvyePPHn74Vn/649G+8rfFYu+O/cq+2tW+ trbXvSchytjeUVmVDuMU5sdahUajknzAyS8lL6RrYJfY7OefbJvh2m+z8NCUKROPP7y54/eD790f j25d8Kg4+POJpuzs8NmL9gKb0089qnsDJUH1r2metzGro4qytqqDgCgvxYWyyokbcpyjUUlxjHIB W/ky8rq6ukpyJvr6GjpBvr6+Tn6Tp4u4iW8Ii1hvm5Zx+/asgLt321pu3t9053pf+eI9B46d2NUU 3rVoybnSmSFReazWfOoUTVtY73phMhqV9IluYV09LRM7J2DJHJGxv6R1wrqpx9+crdn0/fTRigVv N3+OO/hn9qL5G6O/Vq+S7KhKiTLNM3bxUlE2UuWRJqr3C4pK5tGopGOEMnMIy0gBI1XOBNiEtnRa Pnl6pHhY6prMjP79JbMWvlh3PPb9puu7jy5+JFaXdenM5Rm103JMPe2VDXlHo3LwAk4oYAYCLgjg kBFSMrDzT46wnbswYF3bsx3PH5/eujq4Lq5p+97o6sCejpD4dGBmtTdX1jQU4EXNq0YHA/RHo3KQ RTGXsJS8ngmwwnXyd4sUj2jon2tTNiFg4tQ37+uvh+45sC2uKfdybWCKt6OmAAtyVB4azZWDNc9C MisHPz+/sDBopEPJxFJkfdG8gKmxO/J3MxafeHV1ybSZwErVs9JeRVvN89iE0agcQvHLIaVkYhXk NDk5Na1kXszJqW8+1Hw/uuD8iT97PRaFztUajcqhFZ3MwIwqLAvqzyoBm8Q6/mvuTXlTH/qI8ZmP 4mhnZOiVvZzQphIHh7AssKVUoGPZnKghzzWMR3sAabNCkO/LZX4AAAAASUVORK5CYII= "/>
</svg:mask>
<svg:clipPath clipPathUnits="userSpaceOnUse" id="8-back_clipPath5">
<svg:path clip-rule="evenodd" d="M 0,0 H 419.528 V 297.638 H 0 Z" id="8-back_path5" transform="matrix(0.00436588,0,0,-0.00593604,-0.41358981,1.3149822)"/>
</svg:clipPath>
<svg:clipPath clipPathUnits="userSpaceOnUse" id="8-back_clipPath7">
<svg:path clip-rule="evenodd" d="M 0,0 H 419.528 V 297.638 H 0 Z" id="8-back_path7"/>
</svg:clipPath>
<svg:clipPath clipPathUnits="userSpaceOnUse" id="8-back_clipPath9">
<svg:path clip-rule="evenodd" d="M 0,0 H 419.528 V 297.638 H 0 Z" id="8-back_path9"/>
</svg:clipPath>
<svg:mask height="1" id="8-back_mask9" maskUnits="userSpaceOnUse" width="1" x="0" y="0">
<svg:image height="1" id="8-back_image9" preserveAspectRatio="none" style="image-rendering:optimizeSpeed" width="1" xlink:href="data:image/png;base64,iVBORw0KGgoAAAANSUhEUgAAAC4AAAAkCAMAAADB/PhjAAABO1BMVEX///9eXl5paWm1tbUyMjLy 8vK3t7cAAAARERE8PDysrKxISEh0dHQcHByfn58rKyuLi4suLi7t7e3j4+ORkZF1dXWIiIhubm7x 8fHq6urDw8OhoaFmZmYFBQX7+/sgICC2trY9PT2xsbEhISGpqakEBARUVFQ5OTkBAQEJCQn9/f1o aGi+vr4qKioPDw+4uLjr6+sYGBhFRUXb29uysrI2NjZ3d3ePj4/+/v6qqqr09PTZ2dlZWVkSEhIb Gxu/v78HBwfe3t4lJSXKysqDg4OoqKj19fUnJyc3NzdgYGDl5eW9vb0pKSkWFhacnJzz8/NRUVGg oKCAgICZmZmHh4evr6/Hx8c0NDRDQ0M1NTUXFxdiYmJxcXFaWlrX19f5+fnf39+Wlpbu7u6VlZVy cnLs7OwzMzPY2NjR0dEzunVVAAABUUlEQVQ4y5XUh27CMBAG4J+EcAkQCHuU0QLde++999579/2f oHY6gNLQ60mRbOXT+Y9tBcSoIhkGvcgR/qKX6nXBKgFPr6qqBp15eyikDyB5BMB6eH57vAM0tyMf 6QVcgvrFc3N7T3LscQiTX4SsPlRWY/7CgX+Cri95BQQcus9Ne8kncibF+45wT7i6Tw13YXKmOA+f G6lYZ82yP+aKvTjNwvd7yuqpf1iTfIqWFhh8Ymw0AvubHKqSryXSdhRvjBg8u2ufCaATg5/Kk1jB eKCfONwSfGcVZt0L9811HAN72Qxx+cl5rl7sSm5+3I0M8XgaZyV5mjzeYPc+IDY/BHJbXB4HJ0k5 +/omlrlcR4KYJbg5CESjcS53g5u8zIfYvK25G1C4vEU211q53CN5hL8zXvHP4W/k/gZ7XwRvklj5 Fy8QmwdTwrv42YOGYWxz+Tv5hD0ECB6UCAAAAABJRU5ErkJggg== "/>
</svg:mask>
<svg:clipPath clipPathUnits="userSpaceOnUse" id="8-back_clipPath10">
<svg:path clip-rule="evenodd" d="M 0,0 H 419.528 V 297.638 H 0 Z" id="8-back_path10" transform="matrix(0.04346622,0,0,-0.05577639,-1.1470602,3.4691115)"/>
</svg:clipPath>
<svg:clipPath clipPathUnits="userSpaceOnUse" id="8-back_clipPath11">
<svg:path clip-rule="evenodd" d="M 0,0 H 419.528 V 297.638 H 0 Z" id="8-back_path11" transform="matrix(1.0002834,-0.00810711,-0.00810211,-0.99966443,-65.290013,28.98676)"/>
</svg:clipPath>
<svg:clipPath clipPathUnits="userSpaceOnUse" id="8-back_clipPath12">
<svg:path clip-rule="evenodd" d="M 0,0 H 419.528 V 297.638 H 0 Z" id="8-back_path12" transform="matrix(0.99946914,0.04042499,0.04039998,-0.9988472,-71.447824,41.547085)"/>
</svg:clipPath>
<svg:mask height="1" id="8-back_mask12" maskUnits="userSpaceOnUse" width="1" x="0" y="0">
<svg:image height="1" id="8-back_image12" preserveAspectRatio="none" style="image-rendering:optimizeSpeed" width="1" xlink:href="data:image/png;base64,iVBORw0KGgoAAAANSUhEUgAAAEQAAAB1CAMAAADA67eIAAAB+FBMVEX////8/Pza2toEBAQBAQED AwMGBgYAAAAHBwf+/v4yMjIoKCjz8/MFBQULCwsCAgLh4eFWVlbw8PAbGxtZWVm9vb3v7+/Hx8cd HR36+vpQUFD7+/sJCQng4OCMjIwRERHNzc0TExMeHh6hoaEaGhrn5+cgICAwMDD29vZERESampoi IiKxsbEcHByHh4f5+fnW1tYkJCQsLCxeXl61tbWurq4hISFcXFyXl5diYmJUVFSmpqafn5/09PTE xMT4+PgWFhbm5uYNDQ3CwsLb29taWlqrq6vk5OQmJiYUFBR/f3+6uroICAiRkZHLy8vo6OgqKioO Dg7Dw8MYGBjV1dUXFxenp6egoKBgYGDS0tJSUlKLi4v9/f09PT12dnY2NjbFxcW+vr4MDAxFRUW3 t7fp6empqani4uJpaWnU1NSNjY3x8fGqqqrj4+MxMTHOzs4VFRXy8vJAQECysrLr6+tra2vd3d2d nZ1dXV3IyMhBQUGsrKxsbGylpaUlJSVXV1cQEBBJSUl0dHStra1YWFhKSkqDg4O8vLz19fUKCgo8 PDw1NTVLS0uoqKjMzMx+fn55eXmWlpa7u7szMzNISEhlZWUtLS2ZmZl7e3t8fHwnJydbW1sjIyPP z8/l5eWenp7q6urc3Ny5ubkrKyvAwMDQ0NAPDw/R0dGT8HNaAAACg0lEQVRYw+3YVXfiUBQF4AME CK4dpLjV3W3q7u103N3drePu7i5/cyjtUCwk954+3v0K61uEldzsc0CdJ8qe2diQTvfhk83P5/se CH/kefn6bW/fYDT6xft54N2rLmLE09ja1g1p6Zi5URvkpCM9deXmQsjOoYk7NdIQzm+Xg2BOjFco JSB1DsibI76QGFJ2CkQzWaLKh6jWy0FC7rVHhBFVpQykJeDnBBDbXpAc7/XciLIACOLaxuVAnEQG QLE7B7IWCLNqZyai8AFxzEMZSIuGHIFLhjQk0kdhgGZ/GtILVKnSpiBNQJmbY0lkejstUvUwibg1 tAgc45cQwyDQx7KE2BEGlPMJhG/AINHGBBLyYhBoSSCPZChkdQJpB1xscUTRjUQ+xpE3SAPG40g/ FvkxBuoRLBIYBkUYi3yPwZ8ZLPLtJ8z9xSLWIrCtwSJ6LURWApn7vQKXM/0Li0xOgfIrFpGHQP0e i0wEQW3BIqM8qHVYxBd/AJVmJGJZOJSacUbn7AJSshmFvEgcjxVnMYamKYEYBjDIvtjiy2sjBjms WkT4agRy+/8LfZeL2riQbAXGAvpjYLnkZNz60ptGWLWMKK7Q/ZDCqdTOdl9OY7hupRU/rpUGWafI aNRPybuB9XhWLX9OWtyqr2Z3e/4JmaLfkmtUMbaRXJH8ZO6hSfmYYMQoEpwBn+mlEbLdOuFB0vRg jyTkIJ93pHWWWsWrnltsuDbUBkT+jctGTnxX4Dk/2iFIHKiskbhwMOqaO3MSjvmgiWB/Mtx/zmEu TnleT2+o36o1kS5hTNecR+0jpQ13d9SHN525WNbF02xypIchDGEIQxjCEIYwhCEMYQhDGJIn/wBU SsEddeMI1wAAAABJRU5ErkJggg== "/>
</svg:mask>
<svg:clipPath clipPathUnits="userSpaceOnUse" id="8-back_clipPath13">
<svg:path clip-rule="evenodd" d="M 0,0 H 419.528 V 297.638 H 0 Z" id="8-back_path13" transform="matrix(0.02955703,0,0,-0.01708756,-0.88000128,0.99341579)"/>
</svg:clipPath>
<svg:mask height="1" id="8-back_mask13" maskUnits="userSpaceOnUse" width="1" x="0" y="0">
<svg:image height="1" id="8-back_image14" preserveAspectRatio="none" style="image-rendering:optimizeSpeed" width="1" xlink:href="data:image/png;base64,iVBORw0KGgoAAAANSUhEUgAAADMAAAAlCAMAAADY8CGeAAAB+1BMVEX////+/v4BAQENDQ39/f0+ Pj4zMzMAAADHx8f39/f8/Pz7+/v5+fmQkJCWlpYEBAQtLS0rKyubm5suLi4KCgrl5eUJCQmtra36 +voGBgaPj48kJCRBQUFMTEzq6upUVFQREREICAh0dHSvr6/Pz8+hoaHv7+8XFxcqKioDAwP19fXV 1dVCQkIFBQUjIyMODg7IyMjS0tI9PT1zc3MmJibn5+cMDAwbGxvOzs67u7tDQ0MnJycaGhq3t7f0 9PQ2NjY8PDwHBwelpaUCAgI5OTnQ0NCkpKRsbGyRkZFRUVHT09MiIiLk5OQUFBQ7Ozvp6empqani 4uLCwsIYGBglJSUgICDe3t7h4eHg4ODLy8v29vZ9fX1hYWGMjIwTExNiYmLNzc34+PgWFhaIiIju 7u7Z2dkZGRkLCwuoqKhoaGja2tpTU1Pw8PB3d3ewsLBpaWlbW1vGxsbx8fF4eHiOjo5HR0eAgIDy 8vIdHR3z8/M6OjqXl5eJiYnt7e3m5uampqbY2NiYmJh1dXXU1NQVFRXr6+vX19eKiop8fHyEhITo 6OgoKCghISGGhoa5ubkyMjLd3d1ISEgsLCxfX1+Dg4OcnJzBwcEfHx9+fn4QEBBtbW22trZra2sP Dw+zs7NLS0s3Nzfj4+PR0dE1NTXs7OxNTU1kZGSsrKzKyso++SnLAAACUUlEQVQ4y5WU5XcaQRTF 31omEDQQNE2xAMFjjbs27qm7u7u7u7u3f2YHsjqztCf3y5699/yW5c27C0iU85mA1T3fgyh5Y7Oz H1nlHsRrPHwTsPiFcBdBvP3waSSZLDX39xFM23WQFA1xKqJnIiL6psEmVs20JUGRsdeqMKeOKcHa jIpxhkGjjoBIuC5r/Fqnwjh2aBnmgsiEeG2wnpWZ7UDorKOAtF8k/OZNMrOFZGAgiG3rIdJe1y0x owaK8TRgv8FD+fUS46AiKBOwv5mn/GqJsekwddgvp/01//sdHaZFYlyNNNOlz5TLc7NQWUV+fzZS Nr9BZvoTRGaszNurjSTT6JeZVW5iDwrjQdsqSGbYq+zoGU3KHxU3u44Y9ti4ugvxiJJMh1zSVt/R vN2lc9rOtbeIQec1VRNQ6p5qLn6ipyi4f8+Vzn0de3dpW+p/OFLYLP7JixjZbay+9O50DfUxYL0P nk89uvvUxVLfg0DrQbPvhM+M5atvdcp57HGJqPtBgjm508QoczPV2pZswR01SErcun1DxXBXGeIg tg7lj62ZONQDliaZOU8dOJiO4L9ynHSZSGCJsR6mewJwGr8eV0XZr14XGNsk6OklHpSbcpnBPFPT q4vAAJ77G4Zu/WfM2Mv0mSjexyGagSkroHf6CBhTuA06z/s2Dmx1EQZWIFRpou2vc5CdWSZTZYe5 seUz8cl/MCmPLmP7UYwZRqhkppTS+1HI/lyJ9ctnwfqdy+X+LCwuTicMeGBuVESgvklzHJedz2T8 379MCIK9GPMXuoRdTVMVAgAAAAAASUVORK5CYII= "/>
</svg:mask>
<svg:clipPath clipPathUnits="userSpaceOnUse" id="8-back_clipPath15">
<svg:path clip-rule="evenodd" d="M 0,0 H 419.528 V 297.638 H 0 Z" id="8-back_path15" transform="matrix(0.03889083,0,0,-0.05374816,-1.3157932,2.761138)"/>
</svg:clipPath>
<svg:clipPath clipPathUnits="userSpaceOnUse" id="8-back_clipPath16">
<svg:path clip-rule="evenodd" d="M 0,0 H 419.528 V 297.638 H 0 Z" id="8-back_path16" transform="matrix(1,0,0,-1,-143.488,225.98101)"/>
</svg:clipPath>
<svg:clipPath clipPathUnits="userSpaceOnUse" id="8-back_clipPath18">
<svg:path clip-rule="evenodd" d="M 0,0 H 419.528 V 297.638 H 0 Z" id="8-back_path18" transform="matrix(1,0,0,-1,-34.015701,166.863)"/>
</svg:clipPath>
<svg:clipPath clipPathUnits="userSpaceOnUse" id="8-back_clipPath19">
<svg:path clip-rule="evenodd" d="M 0,0 H 419.528 V 297.638 H 0 Z" id="8-back_path19" transform="matrix(1,0,0,-1,-34.015701,152.463)"/>
</svg:clipPath>
<svg:clipPath clipPathUnits="userSpaceOnUse" id="8-back_clipPath21">
<svg:path clip-rule="evenodd" d="M 0,0 H 419.528 V 297.638 H 0 Z" id="8-back_path21" transform="matrix(1,0,0,-1,-34.015701,126.063)"/>
</svg:clipPath>
<svg:clipPath clipPathUnits="userSpaceOnUse" id="8-back_clipPath24">
<svg:path clip-rule="evenodd" d="M 0,0 H 419.528 V 297.638 H 0 Z" id="8-back_path24" transform="matrix(1,0,0,-1,-34.015701,111.663)"/>
</svg:clipPath>
<svg:clipPath clipPathUnits="userSpaceOnUse" id="8-back_clipPath25">
<svg:path clip-rule="evenodd" d="M 0,0 H 419.528 V 297.638 H 0 Z" id="8-back_path25" transform="matrix(1,0,0,-1,-34.015701,97.262902)"/>
</svg:clipPath>
<svg:clipPath clipPathUnits="userSpaceOnUse" id="8-back_clipPath27">
<svg:path clip-rule="evenodd" d="M 0,0 H 419.528 V 297.638 H 0 Z" id="8-back_path27" transform="matrix(1,0,0,-1,-34.015701,82.862902)"/>
</svg:clipPath>
<svg:clipPath clipPathUnits="userSpaceOnUse" id="8-back_clipPath28">
<svg:path clip-rule="evenodd" d="M 0,0 H 419.528 V 297.638 H 0 Z" id="8-back_path28" transform="matrix(1,0,0,-1,-34.015701,68.462902)"/>
</svg:clipPath>
<svg:clipPath clipPathUnits="userSpaceOnUse" id="8-back_clipPath29">
<svg:path clip-rule="evenodd" d="M 0,0 H 419.528 V 297.638 H 0 Z" id="8-back_path29" transform="matrix(1,0,0,-1,-180.195,30.586401)"/>
</svg:clipPath>
<svg:clipPath clipPathUnits="userSpaceOnUse" id="8-back_clipPath31">
<svg:path clip-rule="evenodd" d="M 0,0 H 419.528 V 297.638 H 0 Z" id="8-back_path31"/>
</svg:clipPath>
<svg:clipPath clipPathUnits="userSpaceOnUse" id="8-back_clipPath32">
<svg:path clip-rule="evenodd" d="M 0,0 H 419.528 V 297.638 H 0 Z" id="8-back_path32" transform="matrix(1,0,0,-1,-70.120502,46.337601)"/>
</svg:clipPath>
</svg:defs>
<sodipodi:namedview bordercolor="#666666" borderopacity="1.0" id="8-back_namedview1" inkscape:deskcolor="#d1d1d1" inkscape:pagecheckerboard="0" inkscape:pageopacity="0.0" inkscape:showpageshadow="2" pagecolor="#ffffff">
<inkscape:page bleed="0" height="396.85068" id="8-back_page1" inkscape:label="1" margin="0" width="559.37067" x="0" y="0"/>
</sodipodi:namedview>
<svg:g id="8-back_g1" inkscape:groupmode="layer" inkscape:label="1">
<g height="1" id="8-back_image2" transform="matrix(560.65906,0,0,396.85069,-0.69498133,0)" width="1"><svg:g id="8-back_g1" inkscape:groupmode="layer" inkscape:label="1">
<svg:path d="M 0.450712 -9.64257e-05 L -1.99934e-05 -3.10505e-05 L -8.55287e-05 0.99934 L 0.139348 0.999771 L 0.158087 0.934193 L 0.0435099 0.934183 L 0.0435063 0.85055 L 0.0441062 0.85055 L 0.043468 0.0643487 L 0.429841 0.064471 Z" id="rect2" sodipodi:nodetypes="ccccccccccc" style="opacity:0.99;fill:#f37c20;fill-opacity:1;stroke-width:1.48973"></svg:path>
<svg:g height="1" id="8-back_image2" width="1">
<svg:g id="g1" inkscape:groupmode="layer" inkscape:label="Image">
<svg:path d="M 0.450679 -8.16213e-05 L 0.429834 0.0644596 L 0.851929 0.0642397 L 0.869406 -7.87132e-05 Z M 0.158011 0.934271 L 0.139317 0.999794 L 0.557703 0.999753 L 0.577604 0.934258 Z" id="rect1-1" sodipodi:nodetypes="cccccccccc" style="opacity:0.99;fill:#61a534;fill-opacity:1;stroke-width:0.96588"></svg:path>
<svg:path d="M 0.8694 -0.00020702 L 0.85192 0.0642551 L 0.952976 0.0642949 L 0.952926 0.934258 L 0.577614 0.934235 L 0.557553 0.999794 L 0.998948 0.99936 L 0.999916 0 Z" id="rect1-1-0" sodipodi:nodetypes="ccccccccc" style="opacity:0.99;fill:#fec709;fill-opacity:1;stroke-width:0.538783"></svg:path>
</svg:g>
</svg:g>
</svg:g></g>
<svg:path clip-path="url(#8-back_clipPath4)" d="m 18.2801,19.3737 h 381.989 v 259.131 H 18.2801 Z" id="8-back_path3" style="fill:#ffffff;fill-opacity:1;fill-rule:evenodd;stroke:none" transform="matrix(1.3333333,0,0,-1.3333333,0,396.85067)"/>
<g height="1" id="8-back_image5" transform="matrix(305.39831,0,0,224.61659,126.30963,101.48385)" width="1"><svg:g id="g1" inkscape:groupmode="layer" inkscape:label="Image">
<svg:path d="M 0.224801 0.000157557 C 0.21623 0.000731417 0.207657 0.00150702 0.19914 0.00295379 C 0.19586 0.00357012 0.192637 0.00464534 0.189403 0.00559494 C 0.179369 0.00874985 0.169584 0.0133762 0.160317 0.019474 C 0.147596 0.0277975 0.135753 0.0385276 0.125098 0.0510775 C 0.11533 0.0625467 0.106583 0.0755785 0.0989533 0.0897027 C 0.0922842 0.101929 0.0864432 0.114976 0.0814515 0.128587 C 0.0767004 0.141575 0.0727279 0.155083 0.0695704 0.168931 C 0.0662478 0.18376 0.0638142 0.198968 0.0624673 0.214361 C 0.0612709 0.227772 0.0612934 0.241303 0.0612884 0.254789 C 0.0613398 0.269503 0.061383 0.284218 0.0617338 0.298925 C 0.0620864 0.314111 0.0629463 0.329336 0.0652902 0.34422 C 0.066857 0.354135 0.0689725 0.363926 0.0719428 0.373244 C 0.0756589 0.383907 0.0801374 0.394038 0.0846189 0.404133 C 0.0887862 0.413472 0.0930385 0.422752 0.0976859 0.431667 C 0.104862 0.445346 0.113014 0.458069 0.121834 0.469847 C 0.136768 0.489647 0.15402 0.506297 0.172856 0.518606 C 0.182258 0.524735 0.192058 0.529769 0.20214 0.533435 C 0.211776 0.53697 0.221701 0.539099 0.231681 0.539601 C 0.238466 0.540027 0.245273 0.539711 0.252024 0.538744 C 0.256891 0.537993 0.261738 0.536938 0.266507 0.535409 C 0.275222 0.532619 0.283566 0.528146 0.291941 0.523933 C 0.29998 0.519742 0.307966 0.515363 0.315904 0.510837 C 0.326336 0.504872 0.33664 0.498483 0.34676 0.491598 C 0.359016 0.483185 0.371008 0.473991 0.382319 0.463405 C 0.388955 0.457103 0.395458 0.450519 0.401552 0.443276 C 0.408068 0.43562 0.414195 0.427342 0.419765 0.418421 C 0.430156 0.401718 0.438557 0.382639 0.443885 0.361993 C 0.446764 0.350632 0.44894 0.338952 0.450584 0.327151 C 0.452996 0.309677 0.454016 0.291844 0.453538 0.274075 C 0.453394 0.267123 0.453 0.260182 0.452421 0.253273 C 0.451779 0.245648 0.450881 0.238063 0.449739 0.230548 C 0.447349 0.214554 0.443682 0.19893 0.439012 0.183893 C 0.436192 0.17486 0.432983 0.166052 0.429427 0.157507 C 0.425384 0.147864 0.421015 0.138453 0.416085 0.12959 C 0.411222 0.120787 0.405893 0.112456 0.400161 0.104671 C 0.396661 0.0999305 0.392998 0.0954176 0.389309 0.0909499 C 0.383582 0.0840708 0.377723 0.0773948 0.371747 0.0709169 C 0.364117 0.0626771 0.356172 0.05497 0.347961 0.0478284 C 0.340299 0.0412118 0.332413 0.0350573 0.324298 0.0295097 C 0.304335 0.0159431 0.282832 0.00622895 0.26065 0.00225767 C 0.250216 0.000408579 0.239674 0.000207856 0.229165 0.000123393 C 0.22771 0.000134781 0.226256 0.000146169 0.224801 0.000157557 Z M 0.734806 0.0176638 C 0.728164 0.0185455 0.721597 0.0202084 0.715022 0.0217151 C 0.706038 0.0239317 0.697161 0.0269901 0.688537 0.0310673 C 0.672875 0.0381918 0.657904 0.0479989 0.643941 0.0599393 C 0.63521 0.067357 0.626903 0.0756714 0.619014 0.0846467 C 0.61196 0.0927351 0.605252 0.101374 0.598939 0.110515 C 0.594134 0.117454 0.589544 0.124669 0.585215 0.132159 C 0.580621 0.140063 0.576316 0.148269 0.572284 0.156715 C 0.565211 0.17155 0.559007 0.187156 0.553861 0.203384 C 0.550003 0.215626 0.546604 0.228154 0.543974 0.240984 C 0.541331 0.253767 0.539322 0.266792 0.538005 0.279946 C 0.536558 0.294186 0.535988 0.308589 0.536329 0.322956 C 0.536661 0.337557 0.537941 0.352113 0.540049 0.366436 C 0.542664 0.383641 0.546919 0.400414 0.552919 0.416005 C 0.559348 0.432962 0.567458 0.448731 0.576845 0.462929 C 0.584221 0.474118 0.5925 0.484184 0.601307 0.493269 C 0.614769 0.507124 0.629509 0.51868 0.64501 0.527812 C 0.652722 0.53232 0.660636 0.536196 0.668679 0.539477 C 0.675193 0.542147 0.68179 0.544452 0.688448 0.546359 C 0.701458 0.550054 0.714675 0.552505 0.727963 0.553226 C 0.733216 0.553555 0.738478 0.553581 0.743734 0.553395 C 0.759409 0.552842 0.77507 0.550099 0.790247 0.544713 C 0.800719 0.541023 0.8109 0.535856 0.820634 0.529461 C 0.831534 0.522313 0.841835 0.513554 0.851501 0.503692 C 0.858996 0.495991 0.866099 0.487593 0.872709 0.478529 C 0.878449 0.470654 0.883829 0.462294 0.888823 0.453534 C 0.896608 0.439862 0.903506 0.425261 0.909351 0.409919 C 0.915918 0.392607 0.921178 0.374388 0.92505 0.355652 C 0.929716 0.332821 0.932163 0.309145 0.932169 0.285454 C 0.932193 0.277071 0.931879 0.268686 0.931265 0.260344 C 0.930758 0.253664 0.930031 0.247017 0.929087 0.240424 C 0.926857 0.224335 0.924174 0.208357 0.920974 0.19257 C 0.918849 0.182187 0.916341 0.171942 0.913327 0.161967 C 0.908762 0.146822 0.903351 0.132123 0.896973 0.118224 C 0.890793 0.104853 0.883561 0.0923695 0.875442 0.0810578 C 0.867213 0.0696493 0.857973 0.0595453 0.847842 0.0513906 C 0.841411 0.0461865 0.834677 0.0416647 0.827729 0.0378704 C 0.818166 0.0326119 0.808257 0.0285063 0.798168 0.0255584 C 0.790531 0.0233341 0.782803 0.0216988 0.775038 0.0205639 C 0.765949 0.0191979 0.756807 0.0186286 0.747672 0.0181767 C 0.743701 0.017984 0.739728 0.0177636 0.735754 0.0176394 C 0.735437 0.0176475 0.735121 0.0176557 0.734806 0.0176638 Z M 0.294584 0.581508 C 0.266426 0.581653 0.238267 0.581839 0.210109 0.582144 C 0.201967 0.58225 0.193823 0.582516 0.1857 0.583306 C 0.179821 0.583885 0.173964 0.584831 0.168144 0.586096 C 0.158847 0.588121 0.149616 0.590885 0.140694 0.595003 C 0.135701 0.597226 0.130826 0.599926 0.126076 0.602967 C 0.119345 0.607351 0.112891 0.612557 0.106985 0.618762 C 0.0998932 0.626097 0.0931354 0.634002 0.086493 0.642063 C 0.0817458 0.647908 0.0771523 0.65398 0.0727742 0.660333 C 0.0678391 0.667454 0.0631532 0.674892 0.0587375 0.682613 C 0.0459641 0.704903 0.0353896 0.729451 0.0270283 0.75528 C 0.0198684 0.777463 0.0141005 0.80048 0.00997329 0.824038 C 0.00675186 0.842281 0.00436002 0.86079 0.002869 0.879434 C 0.00211732 0.888649 0.00160554 0.897893 0.00130395 0.907152 C 0.000903493 0.917617 0.000702336 0.92809 0.000435167 0.938561 C 0.000822126 0.944497 0.00224484 0.95043 0.00503852 0.955107 C 0.00821636 0.95989 0.012631 0.962968 0.017253 0.964268 C 0.026304 0.96684 0.0356126 0.966624 0.0448061 0.966163 C 0.0571609 0.965619 0.0695158 0.965075 0.0818707 0.964532 C 0.0960194 0.966098 0.110171 0.96773 0.124361 0.968431 C 0.162257 0.970651 0.200153 0.972833 0.238047 0.975079 C 0.260045 0.976522 0.282035 0.97818 0.304025 0.979874 C 0.325891 0.981651 0.347747 0.983655 0.369602 0.985683 C 0.391734 0.987809 0.413868 0.989952 0.435984 0.9924 C 0.458592 0.994833 0.481198 0.997342 0.503804 0.999811 C 0.506716 1.00009 0.509713 1.00052 0.512552 0.99932 C 0.517194 0.997561 0.52105 0.992642 0.522819 0.986605 C 0.524527 0.98103 0.524964 0.974961 0.525691 0.969057 C 0.526006 0.961599 0.525888 0.954123 0.525536 0.94667 C 0.524787 0.929308 0.524003 0.91195 0.523524 0.89457 C 0.523295 0.888055 0.52328 0.88145 0.522094 0.875086 C 0.520857 0.867695 0.520683 0.860092 0.520102 0.85258 C 0.518992 0.83641 0.517922 0.820233 0.516788 0.804066 C 0.515916 0.79439 0.514879 0.784735 0.513535 0.775157 C 0.5116 0.761234 0.50909 0.747437 0.505774 0.733992 C 0.502343 0.720039 0.49804 0.706467 0.492729 0.693631 C 0.488632 0.683672 0.483854 0.674212 0.478389 0.66553 C 0.474252 0.658866 0.469831 0.652531 0.465383 0.646243 C 0.460724 0.639689 0.45593 0.633295 0.450853 0.627329 C 0.442238 0.617411 0.432478 0.609444 0.422293 0.602852 C 0.413474 0.597238 0.404243 0.592837 0.394794 0.589608 C 0.384637 0.586141 0.374261 0.583811 0.363815 0.5827 C 0.354997 0.581839 0.34615 0.581683 0.337313 0.581597 C 0.323068 0.581497 0.308826 0.581482 0.294584 0.581508 Z M 0.770053 0.592118 C 0.740372 0.592573 0.710689 0.592973 0.68101 0.5937 C 0.669295 0.593995 0.657572 0.594267 0.645872 0.595234 C 0.637849 0.595887 0.629857 0.597105 0.621912 0.598758 C 0.614595 0.60031 0.607299 0.60214 0.600119 0.604623 C 0.593242 0.606949 0.586434 0.609716 0.579863 0.613326 C 0.574474 0.616155 0.569212 0.619395 0.563913 0.622508 C 0.561213 0.624536 0.559341 0.628358 0.558887 0.632473 C 0.557568 0.642631 0.557399 0.653134 0.558931 0.663268 C 0.560848 0.677011 0.564595 0.690104 0.567976 0.703271 C 0.572004 0.718712 0.576111 0.734113 0.579861 0.749681 C 0.582559 0.761574 0.583555 0.774034 0.583863 0.786426 C 0.584472 0.811114 0.585145 0.835798 0.585492 0.860497 C 0.58577 0.877034 0.585921 0.893577 0.586469 0.910102 C 0.587091 0.921513 0.58878 0.932835 0.591659 0.943602 C 0.592517 0.946626 0.59314 0.949904 0.594741 0.952405 C 0.59637 0.954522 0.598773 0.954711 0.600905 0.95456 C 0.624924 0.954519 0.648946 0.95456 0.672965 0.954548 C 0.782121 0.954557 0.891278 0.954563 1.00043 0.954572 C 1.00028 0.927476 1.00023 0.900376 0.999777 0.873282 C 0.999546 0.856763 0.998539 0.840274 0.997005 0.823884 C 0.995679 0.809887 0.993803 0.795969 0.991145 0.782314 C 0.989685 0.774862 0.988023 0.767477 0.986086 0.760223 C 0.981142 0.741477 0.974251 0.723651 0.965527 0.70762 C 0.960902 0.699085 0.955738 0.691121 0.950535 0.683234 C 0.945282 0.675338 0.939854 0.667628 0.933954 0.660604 C 0.925273 0.650172 0.915808 0.640966 0.905894 0.632807 C 0.891815 0.621343 0.876724 0.61217 0.861049 0.605504 C 0.845149 0.59877 0.828657 0.59451 0.812014 0.593212 C 0.8059 0.592686 0.799771 0.592467 0.793644 0.592284 C 0.785782 0.592095 0.777917 0.592092 0.770053 0.592118 Z" id="path1" style="fill:#eeeded;fill-opacity:1"></svg:path>
</svg:g></g>
<svg:path clip-path="url(#8-back_clipPath7)" d="m 37.0734,196.555 h 345.381 v 76.56 H 37.0734 Z" id="8-back_path6" style="fill:#61a533;fill-opacity:1;fill-rule:evenodd;stroke:none" transform="matrix(1.3333333,0,0,-1.3333333,0,396.85067)"/>
<svg:path clip-path="url(#8-back_clipPath9)" d="M 104.882,184.473 H 314.646 Z" id="8-back_path8" style="fill:none;stroke:#ffc709;stroke-width:3.4304;stroke-linecap:butt;stroke-linejoin:miter;stroke-miterlimit:10;stroke-dasharray:none;stroke-opacity:1" transform="matrix(1.3333333,0,0,-1.3333333,0,396.85067)"/>
<g height="1" id="8-back_image10" transform="matrix(30.675163,0,0,23.904979,35.18626,313.92163)" width="1"><svg:g id="g1">
<svg:g fill="#61a534" id="i"></svg:g>
<svg:g fill="#000000" id="fw">
<svg:path d="M 0.790353 0.00564477 C 0.787103 0.00846716 0.783311 0.0204623 0.782227 0.0317519 L 0.780602 0.0529198 L 0.769767 0.0296351 C 0.760558 0.010584 0.756766 0.00705597 0.74539 0.010584 C 0.737806 0.0134063 0.731305 0.0155231 0.730763 0.0162287 C 0.72968 0.0183455 0.74539 0.143236 0.747015 0.146059 C 0.748099 0.146764 0.754058 0.146059 0.760558 0.143236 C 0.771393 0.139708 0.772476 0.13618 0.769226 0.113601 L 0.766517 0.0881996 L 0.778435 0.112895 C 0.785477 0.126302 0.790895 0.138297 0.791436 0.139003 C 0.791436 0.139708 0.797395 0.139003 0.803896 0.13618 C 0.814189 0.133358 0.815814 0.127713 0.815814 0.0987836 C 0.815814 0.047275 0.809855 0 0.802813 0 C 0.799562 0 0.794145 0.00282239 0.790353 0.00564477 Z" id="fx"></svg:path>
<svg:path d="M 0.835316 0.0112895 C 0.822315 0.0275183 0.823398 0.106545 0.836399 0.122068 C 0.856443 0.146059 0.90249 0.130535 0.90249 0.100195 C 0.90249 0.0896108 0.879737 0.0889052 0.871612 0.0994891 C 0.861319 0.112895 0.853735 0.0994891 0.853735 0.0670317 C 0.853735 0.0317519 0.860777 0.0218735 0.874862 0.0381022 C 0.887863 0.0536254 0.90249 0.0522142 0.90249 0.0359854 C 0.90249 0.0141119 0.887322 0 0.864569 0 C 0.852651 0 0.840192 0.00493918 0.835316 0.0112895 Z" id="fy"></svg:path>
<svg:path d="M 0.916033 0.0642093 C 0.913866 0.0987836 0.913866 0.12983 0.915491 0.132652 C 0.922534 0.141119 0.98104 0.146059 0.984832 0.138297 C 0.994041 0.121363 0.988624 0.113601 0.966413 0.111484 C 0.948536 0.110073 0.942577 0.10584 0.941494 0.0959612 C 0.939327 0.083966 0.942036 0.0832604 0.964246 0.0860828 C 0.98754 0.0896108 0.989166 0.0889052 0.989166 0.0733821 C 0.989166 0.0599757 0.985915 0.0571533 0.969122 0.0550365 C 0.958287 0.0536254 0.948536 0.0486862 0.946911 0.0430414 C 0.944744 0.0359854 0.950161 0.0345742 0.972372 0.0388078 C 0.997833 0.0430414 1 0.0423358 1 0.0289295 C 1 0.0141119 0.998375 0.0134063 0.942577 0.00423358 L 0.919825 0 Z" id="fz"></svg:path>
<svg:path d="M 0.671716 0.0261071 C 0.657631 0.0296351 0.653297 0.0522142 0.653297 0.11854 L 0.653297 0.164404 L 0.640296 0.148881 C 0.630003 0.13618 0.627836 0.127713 0.630003 0.106545 C 0.634878 0.0606813 0.610501 0.0458638 0.566621 0.0663261 C 0.555787 0.0719709 0.548203 0.0797324 0.548744 0.0853772 C 0.551453 0.105134 0.582331 0.201095 0.58504 0.198978 C 0.586665 0.198273 0.592082 0.197567 0.596958 0.197567 C 0.604 0.197567 0.605084 0.192628 0.601833 0.170754 L 0.598041 0.144647 L 0.613751 0.163698 C 0.627836 0.181338 0.630545 0.182044 0.651672 0.174282 C 0.667923 0.168638 0.674966 0.162287 0.677133 0.150998 C 0.681467 0.12983 0.697177 0.122774 0.707469 0.139003 C 0.715053 0.150292 0.739973 0.15382 0.739973 0.143236 C 0.739973 0.134769 0.689051 0.0211679 0.686342 0.0218735 C 0.684717 0.0225791 0.677674 0.0246959 0.671716 0.0261071 Z M 0.687967 0.0881996 C 0.689592 0.0938444 0.688509 0.0987836 0.6858 0.0987836 C 0.68255 0.0987836 0.680383 0.0938444 0.680383 0.0881996 C 0.680383 0.0825548 0.681467 0.0776156 0.68255 0.0776156 C 0.683633 0.0776156 0.6858 0.0825548 0.687967 0.0881996 Z M 0.602375 0.105134 C 0.596958 0.116423 0.582873 0.114307 0.582873 0.103017 C 0.582873 0.091022 0.594249 0.083966 0.601291 0.0917276 C 0.603458 0.0952556 0.604 0.1009 0.602375 0.105134 Z" id="ga"></svg:path>
<svg:path d="M 0.498906 0.103723 C 0.48428 0.113601 0.470737 0.122774 0.469653 0.124185 C 0.468028 0.126302 0.476696 0.152409 0.488072 0.183455 C 0.50324 0.223674 0.511908 0.239903 0.51895 0.239903 C 0.533577 0.239903 0.536285 0.223674 0.526534 0.198978 L 0.517867 0.177105 L 0.536827 0.168638 C 0.556328 0.158759 0.557954 0.156642 0.552536 0.138297 C 0.549828 0.128419 0.547119 0.128419 0.529785 0.137591 C 0.518408 0.143942 0.508657 0.146059 0.505949 0.142531 C 0.502698 0.138297 0.510282 0.131241 0.523284 0.124185 C 0.540077 0.115718 0.544952 0.109368 0.542785 0.101606 C 0.541161 0.0952556 0.539536 0.0889052 0.539536 0.087494 C 0.539536 0.080438 0.523826 0.0867884 0.498906 0.103723 Z" id="gb"></svg:path>
<svg:path d="M 0.402479 0.170049 C 0.394895 0.175694 0.393812 0.18275 0.396521 0.205329 L 0.400313 0.233553 L 0.382436 0.219441 C 0.368351 0.208151 0.362934 0.207445 0.354808 0.213796 C 0.348849 0.218735 0.344515 0.225085 0.344515 0.227908 C 0.344515 0.234964 0.392187 0.322458 0.398687 0.328103 C 0.404646 0.333042 0.420356 0.324575 0.420356 0.316107 C 0.420356 0.312579 0.414939 0.299173 0.408438 0.287178 C 0.400854 0.27236 0.399771 0.268127 0.405188 0.273772 C 0.416023 0.285061 0.425774 0.279416 0.425774 0.262482 C 0.425774 0.253309 0.429024 0.255426 0.438233 0.270244 C 0.446359 0.284356 0.45286 0.288589 0.459902 0.285767 C 0.464778 0.282944 0.469111 0.278005 0.469111 0.274477 C 0.469111 0.265304 0.420356 0.162287 0.416023 0.162287 C 0.413856 0.162287 0.407897 0.165815 0.402479 0.170049 Z" id="gc"></svg:path>
<svg:path d="M 0.295218 0.274477 L 0.282759 0.287178 L 0.305511 0.348565 C 0.317429 0.381728 0.329889 0.409246 0.332597 0.409246 C 0.341806 0.409246 0.349391 0.390901 0.346682 0.376789 C 0.34289 0.357032 0.357516 0.340803 0.368893 0.352798 C 0.374852 0.359149 0.378644 0.359149 0.387853 0.350682 C 0.398146 0.341509 0.398146 0.340098 0.389478 0.330219 C 0.37756 0.316813 0.313637 0.261071 0.310386 0.261071 C 0.308761 0.261071 0.302261 0.266716 0.295218 0.274477 Z M 0.333681 0.324575 C 0.333681 0.328103 0.332597 0.33163 0.331514 0.33163 C 0.329889 0.33163 0.32718 0.328103 0.325555 0.324575 C 0.32393 0.320341 0.325013 0.317519 0.327722 0.317519 C 0.330972 0.317519 0.333681 0.320341 0.333681 0.324575 Z" id="gd"></svg:path>
<svg:path d="M 0.233462 0.352798 L 0.206376 0.388784 L 0.241588 0.430414 C 0.26109 0.453699 0.279508 0.472044 0.282759 0.47275 C 0.286009 0.47275 0.29251 0.467811 0.296302 0.46146 C 0.302802 0.451582 0.301177 0.447348 0.287634 0.433236 L 0.271924 0.417008 L 0.283842 0.400073 C 0.297385 0.381728 0.298469 0.373261 0.289259 0.361266 C 0.284384 0.354915 0.279508 0.357032 0.26759 0.37185 C 0.247005 0.397251 0.241046 0.386667 0.260548 0.359854 C 0.274633 0.340803 0.275174 0.337275 0.268132 0.328103 C 0.26109 0.31893 0.257298 0.321752 0.233462 0.352798 Z" id="ge"></svg:path>
<svg:path d="M 0.191749 0.410657 C 0.186332 0.421241 0.185248 0.431825 0.187957 0.440998 C 0.194458 0.463577 0.193916 0.465694 0.174956 0.465694 C 0.163579 0.465694 0.155454 0.470633 0.15112 0.4791 C 0.142452 0.497446 0.146786 0.500974 0.176581 0.500974 L 0.202583 0.500974 L 0.214501 0.537665 C 0.225878 0.572239 0.226961 0.57365 0.234545 0.560949 C 0.238879 0.552482 0.241046 0.539076 0.239421 0.527081 C 0.236712 0.510146 0.237796 0.50803 0.25188 0.50803 C 0.266507 0.50803 0.284384 0.491095 0.277883 0.482628 C 0.276258 0.480511 0.263798 0.476983 0.249172 0.474161 C 0.224252 0.469222 0.223169 0.467811 0.215043 0.436059 C 0.204209 0.393723 0.2015 0.390901 0.191749 0.410657 Z" id="gf"></svg:path>
<svg:path d="M 0.127826 0.529198 C 0.114283 0.546838 0.108324 0.577178 0.115366 0.591996 C 0.124034 0.610341 0.172789 0.642093 0.184707 0.63786 C 0.200958 0.632215 0.214501 0.607519 0.214501 0.58494 C 0.214501 0.569417 0.209084 0.559538 0.189582 0.539782 C 0.160871 0.511558 0.143536 0.508735 0.127826 0.529198 Z M 0.171164 0.568711 C 0.187957 0.582823 0.191749 0.589879 0.186873 0.596935 C 0.18254 0.603991 0.177122 0.60258 0.161412 0.590585 C 0.150578 0.582823 0.140285 0.575061 0.139202 0.574356 C 0.136493 0.571533 0.142994 0.550365 0.146786 0.550365 C 0.148411 0.550365 0.159246 0.558833 0.171164 0.568711 Z" id="gg"></svg:path>
<svg:path d="M 0.0752784 0.666789 C 0.0649857 0.676667 0.0422333 0.738054 0.0471088 0.742993 C 0.0481922 0.744405 0.0698612 0.755694 0.0953222 0.767689 C 0.129451 0.784624 0.14191 0.788152 0.145161 0.781096 C 0.152745 0.765573 0.149495 0.757105 0.132159 0.747227 L 0.114283 0.738054 L 0.138118 0.732409 C 0.159787 0.72747 0.170622 0.718298 0.171164 0.70348 C 0.171164 0.700658 0.160329 0.698541 0.146786 0.698541 C 0.128909 0.698541 0.122408 0.695718 0.122408 0.688662 C 0.122408 0.677373 0.102365 0.656205 0.0926136 0.656205 C 0.0893633 0.656205 0.0817791 0.661144 0.0752784 0.666789 Z M 0.100739 0.70348 C 0.100198 0.716886 0.0920719 0.725354 0.0850295 0.720414 C 0.0812374 0.716886 0.0796122 0.710536 0.0812374 0.706302 C 0.0855712 0.697835 0.100739 0.695718 0.100739 0.70348 Z" id="gh"></svg:path>
<svg:path d="M 0.0281484 0.808614 C 0.0265233 0.814964 0.0248981 0.824137 0.0248981 0.829782 C 0.0248981 0.838955 0.101823 0.91022 0.112116 0.91022 C 0.1197 0.91022 0.117533 0.880585 0.109407 0.86859 C 0.099656 0.853772 0.107782 0.825548 0.121867 0.825548 C 0.130534 0.825548 0.13866 0.812848 0.13866 0.800147 C 0.13866 0.798736 0.114283 0.797324 0.0850295 0.797324 C 0.0411498 0.797324 0.0308571 0.799441 0.0281484 0.808614 Z M 0.0844877 0.832604 C 0.0844877 0.841777 0.0785288 0.841777 0.068236 0.832604 C 0.0617354 0.826959 0.0622771 0.825548 0.0725698 0.825548 C 0.0790705 0.825548 0.0844877 0.828371 0.0844877 0.832604 Z" id="gi"></svg:path>
<svg:path d="M 0.0178557 0.894697 C 0.00918812 0.906692 -0.00381325 0.973724 0.00106226 0.980074 C 0.00322915 0.983602 0.0969474 1.00195 0.0985726 0.999831 C 0.0991143 0.999125 0.101281 0.991363 0.102906 0.982896 C 0.106157 0.96949 0.10399 0.966668 0.0888215 0.96314 C 0.0720281 0.958906 0.0704029 0.956789 0.0725698 0.934916 C 0.0763619 0.89258 0.0384412 0.864356 0.0178557 0.894697 Z M 0.046567 0.938444 C 0.046567 0.946205 0.042775 0.952556 0.0384412 0.952556 C 0.0341074 0.952556 0.0303153 0.946205 0.0303153 0.938444 C 0.0303153 0.930682 0.0341074 0.924332 0.0384412 0.924332 C 0.042775 0.924332 0.046567 0.930682 0.046567 0.938444 Z" id="gj"></svg:path>
</svg:g>
</svg:g></g>
<svg:text clip-path="url(#8-back_clipPath11)" id="8-back_text10" transform="matrix(1.332868,0.01080933,-0.01080267,1.3336933,87.336103,358.89696)" xml:space="preserve"><svg:tspan id="8-back_tspan10" sodipodi:role="line" style="font-variant:normal;font-weight:normal;font-size:9.9671px;writing-mode:lr-tb;fill:#ffffff;fill-opacity:1;fill-rule:nonzero;stroke:none" x="0 5.0931883 9.8375273 14.621736 16.615156 18.847786 24.090481 28.83482 33.84827 39.071033 43.456554 45.689186 50.014908 54.759247" y="0">des inégalités</svg:tspan></svg:text>
<svg:text clip-path="url(#8-back_clipPath12)" id="8-back_text11" transform="matrix(1.3318627,-0.05390267,0.05386933,1.332692,92.920578,337.62997)" xml:space="preserve"><svg:tspan id="8-back_tspan11" sodipodi:role="line" style="font-variant:normal;font-weight:normal;font-size:9.9668px;writing-mode:lr-tb;fill:#ffffff;fill-opacity:1;fill-rule:nonzero;stroke:none" x="0 4.3853922 9.607995 11.601356 16.245884 21.318985 26.063183 30.847246 35.860546 40.873848 46.115387" y="0">la fresque </svg:tspan></svg:text>
<g height="1" id="8-back_image13" transform="matrix(45.110533,0,0,78.029459,39.697327,319.33497)" width="1"><svg:g id="g1" inkscape:groupmode="layer" inkscape:label="Image">
<svg:path d="M 0.992845 0.294703 A 0.490315 0.286496 0 0 1 0.502531 0.581199 A 0.490315 0.286496 0 0 1 0.0122163 0.294703 A 0.490315 0.286496 0 0 1 0.502531 0.00820649 A 0.490315 0.286496 0 0 1 0.992845 0.294703 Z" id="path1" style="opacity:0.99;fill:#61a534;stroke-width:4.31901;fill-opacity:1"></svg:path>
<svg:rect height="224.52086" id="rect1" style="fill:#ffb380;opacity:0" width="304.95078" x="0.56229752" y="1.2503529"></svg:rect>
</svg:g></g>
<g height="1" id="8-back_image15" transform="matrix(34.284005,0,0,24.807053,45.11066,328.35497)" width="1"><svg:g id="g1" inkscape:groupmode="layer" inkscape:label="Image">
<svg:path d="M 0.770053 0.592118 C 0.740372 0.592573 0.710689 0.592973 0.68101 0.5937 C 0.669295 0.593995 0.657572 0.594267 0.645872 0.595234 C 0.637849 0.595887 0.629857 0.597105 0.621912 0.598758 C 0.614595 0.60031 0.607299 0.60214 0.600119 0.604623 C 0.593242 0.606949 0.586434 0.609716 0.579863 0.613326 C 0.574474 0.616155 0.569212 0.619395 0.563913 0.622508 C 0.561213 0.624536 0.559341 0.628358 0.558887 0.632473 C 0.557568 0.642631 0.557399 0.653134 0.558931 0.663268 C 0.560848 0.677011 0.564595 0.690104 0.567976 0.703271 C 0.572004 0.718712 0.576111 0.734113 0.579861 0.749681 C 0.582559 0.761574 0.583555 0.774034 0.583863 0.786426 C 0.584472 0.811114 0.585145 0.835798 0.585492 0.860497 C 0.58577 0.877034 0.585921 0.893577 0.586469 0.910102 C 0.587091 0.921513 0.58878 0.932835 0.591659 0.943602 C 0.592517 0.946626 0.59314 0.949904 0.594741 0.952405 C 0.59637 0.954522 0.598773 0.954711 0.600905 0.95456 C 0.624924 0.954519 0.648946 0.95456 0.672965 0.954545 C 0.782121 0.954554 0.891278 0.95456 1.00043 0.954569 C 1.00028 0.927473 1.00023 0.900373 0.999777 0.873282 C 0.999546 0.856763 0.998539 0.840274 0.997005 0.823884 C 0.995679 0.809884 0.993803 0.795969 0.991145 0.782314 C 0.989685 0.774859 0.988023 0.767477 0.986086 0.760223 C 0.981142 0.741474 0.974251 0.723651 0.965527 0.707617 C 0.960902 0.699082 0.955738 0.691118 0.950535 0.683234 C 0.945282 0.675335 0.939854 0.667628 0.933954 0.660604 C 0.925273 0.650169 0.915808 0.640963 0.905894 0.632807 C 0.891815 0.62134 0.876724 0.612167 0.861049 0.605504 C 0.845149 0.59877 0.828657 0.59451 0.812014 0.593212 C 0.805898 0.592686 0.799771 0.592467 0.793644 0.592284 C 0.785782 0.592095 0.777917 0.592089 0.770053 0.592118 Z" id="path4" style="fill:#f37b20;fill-opacity:1"></svg:path>
<svg:path d="M 0.294584 0.581508 C 0.266426 0.581653 0.238267 0.581839 0.210109 0.582144 C 0.201967 0.58225 0.193823 0.582516 0.1857 0.583306 C 0.179821 0.583885 0.173964 0.584831 0.168144 0.586096 C 0.158847 0.588121 0.149616 0.590885 0.140694 0.595003 C 0.135701 0.597226 0.130826 0.599926 0.126076 0.602967 C 0.119345 0.607351 0.112891 0.612557 0.106985 0.618762 C 0.0998932 0.626097 0.0931354 0.634002 0.086493 0.642063 C 0.0817458 0.647908 0.0771523 0.65398 0.0727742 0.660333 C 0.0678391 0.667454 0.0631532 0.674892 0.0587375 0.682613 C 0.0459641 0.704903 0.0353896 0.729451 0.0270283 0.75528 C 0.0198684 0.777463 0.0141005 0.80048 0.00997329 0.824038 C 0.00675186 0.842281 0.00436002 0.86079 0.002869 0.879434 C 0.00211732 0.888649 0.00160554 0.897893 0.00130395 0.907152 C 0.000903493 0.917617 0.000702336 0.92809 0.000435167 0.938561 C 0.000822126 0.944497 0.00224484 0.95043 0.00503852 0.955107 C 0.00821636 0.95989 0.012631 0.962968 0.017253 0.964268 C 0.026304 0.96684 0.0356126 0.966624 0.0448061 0.966163 C 0.0571609 0.965619 0.0695158 0.965075 0.0818707 0.964532 C 0.0960194 0.966098 0.110171 0.96773 0.124361 0.968431 C 0.162257 0.970651 0.200153 0.972833 0.238047 0.975079 C 0.260045 0.976522 0.282035 0.97818 0.304025 0.979874 C 0.325891 0.981651 0.347747 0.983655 0.369602 0.985683 C 0.391734 0.987809 0.413868 0.989952 0.435984 0.9924 C 0.458592 0.994833 0.481198 0.997342 0.503804 0.999811 C 0.506716 1.00009 0.509713 1.00052 0.512552 0.99932 C 0.517194 0.997561 0.52105 0.992642 0.522819 0.986605 C 0.524527 0.98103 0.524964 0.974961 0.525691 0.969057 C 0.526006 0.961599 0.525888 0.954123 0.525536 0.94667 C 0.524787 0.929308 0.524003 0.91195 0.523524 0.89457 C 0.523295 0.888055 0.52328 0.88145 0.522094 0.875086 C 0.520857 0.867695 0.520683 0.860092 0.520102 0.85258 C 0.518992 0.83641 0.517922 0.820233 0.516788 0.804066 C 0.515916 0.79439 0.514879 0.784735 0.513535 0.775157 C 0.5116 0.761234 0.50909 0.747437 0.505774 0.733992 C 0.502343 0.720039 0.498037 0.706467 0.492729 0.693631 C 0.488632 0.683672 0.483854 0.674212 0.478389 0.66553 C 0.474252 0.658866 0.469831 0.652531 0.465383 0.646243 C 0.460724 0.639689 0.45593 0.633295 0.450853 0.627329 C 0.442238 0.617411 0.432478 0.609444 0.422293 0.602852 C 0.413474 0.597238 0.404243 0.592837 0.394794 0.589608 C 0.384637 0.586141 0.374261 0.583811 0.363815 0.5827 C 0.354997 0.581839 0.34615 0.581683 0.33731 0.581597 C 0.323068 0.581497 0.308826 0.581482 0.294584 0.581508 Z" id="path3" style="fill:#fec709;fill-opacity:1"></svg:path>
<svg:path d="M 0.734806 0.0176638 C 0.728164 0.0185455 0.721597 0.0202084 0.715022 0.0217151 C 0.706038 0.0239317 0.697161 0.0269901 0.688537 0.0310673 C 0.672875 0.0381918 0.657904 0.0479989 0.643941 0.0599393 C 0.63521 0.067357 0.626903 0.0756714 0.619014 0.0846467 C 0.61196 0.0927351 0.605252 0.101374 0.598939 0.110515 C 0.594134 0.117454 0.589544 0.124669 0.585215 0.132159 C 0.580621 0.140063 0.576316 0.148269 0.572284 0.156715 C 0.565211 0.17155 0.559007 0.187156 0.553861 0.203384 C 0.550003 0.215626 0.546604 0.228154 0.543974 0.240984 C 0.541331 0.253767 0.539322 0.266792 0.538005 0.279946 C 0.536558 0.294186 0.535988 0.308589 0.536329 0.322956 C 0.536661 0.337557 0.537941 0.352113 0.540049 0.366436 C 0.542664 0.383641 0.546919 0.400414 0.552919 0.416005 C 0.559348 0.432962 0.567458 0.448731 0.576845 0.462929 C 0.584221 0.474118 0.5925 0.484184 0.601309 0.493269 C 0.614769 0.507124 0.629509 0.51868 0.64501 0.527812 C 0.652722 0.53232 0.660636 0.536196 0.668679 0.539477 C 0.675193 0.542147 0.68179 0.544452 0.688448 0.546359 C 0.701458 0.550054 0.714675 0.552505 0.727963 0.553226 C 0.733216 0.553555 0.738478 0.553581 0.743734 0.553395 C 0.759409 0.552842 0.77507 0.550099 0.790247 0.544713 C 0.800719 0.541023 0.8109 0.535856 0.820634 0.529461 C 0.831534 0.522313 0.841835 0.513554 0.851501 0.503692 C 0.858996 0.495991 0.866099 0.487593 0.872709 0.478529 C 0.878449 0.470654 0.883829 0.462294 0.888823 0.453534 C 0.896608 0.439862 0.903506 0.425261 0.909351 0.409919 C 0.915918 0.392607 0.921178 0.374388 0.92505 0.355652 C 0.929716 0.332821 0.932163 0.309145 0.932169 0.285454 C 0.932193 0.277071 0.931879 0.268686 0.931265 0.260344 C 0.930758 0.253664 0.930031 0.247017 0.929087 0.240424 C 0.926857 0.224335 0.924174 0.208357 0.920974 0.19257 C 0.918849 0.182187 0.916341 0.171942 0.913327 0.161967 C 0.908762 0.146822 0.903351 0.132123 0.896973 0.118224 C 0.890793 0.104853 0.883561 0.0923695 0.875442 0.0810578 C 0.867213 0.0696493 0.857973 0.059545 0.847842 0.0513906 C 0.841411 0.0461865 0.834677 0.0416647 0.827729 0.0378704 C 0.818166 0.0326119 0.808257 0.0285062 0.798168 0.0255584 C 0.790531 0.0233341 0.782803 0.0216988 0.775038 0.0205639 C 0.765949 0.0191979 0.756807 0.0186286 0.747672 0.0181767 C 0.743701 0.017984 0.739728 0.0177636 0.735754 0.0176394 C 0.735437 0.0176475 0.735121 0.0176556 0.734806 0.0176638 Z" id="path2" style="fill:#f37b20;fill-opacity:1"></svg:path>
<svg:path d="M 0.224801 0.000157557 C 0.21623 0.000731417 0.207657 0.00150702 0.19914 0.00295379 C 0.19586 0.00357012 0.192637 0.00464534 0.189403 0.00559494 C 0.179369 0.00874985 0.169584 0.0133762 0.160317 0.019474 C 0.147596 0.0277975 0.135753 0.0385276 0.125098 0.0510775 C 0.11533 0.0625467 0.106583 0.0755785 0.0989533 0.0897027 C 0.0922842 0.101929 0.0864432 0.114976 0.0814515 0.128587 C 0.0767004 0.141575 0.0727279 0.155083 0.0695702 0.168931 C 0.0662478 0.18376 0.0638142 0.198968 0.0624673 0.214361 C 0.0612709 0.227772 0.0612934 0.241303 0.0612884 0.254789 C 0.0613395 0.269503 0.0613828 0.284218 0.0617338 0.298925 C 0.0620864 0.314111 0.0629463 0.329336 0.0652902 0.34422 C 0.066857 0.354135 0.0689725 0.363926 0.0719428 0.373244 C 0.0756589 0.383907 0.0801374 0.394038 0.0846189 0.404133 C 0.0887862 0.413472 0.0930385 0.422752 0.0976859 0.431667 C 0.104862 0.445346 0.113014 0.458069 0.121834 0.469847 C 0.136768 0.489647 0.154019 0.506297 0.172856 0.518606 C 0.182258 0.524735 0.192058 0.529769 0.20214 0.533435 C 0.211776 0.53697 0.221701 0.539099 0.231681 0.539601 C 0.238466 0.540027 0.245273 0.539711 0.252024 0.538744 C 0.256891 0.537993 0.261738 0.536938 0.266507 0.535409 C 0.275222 0.532619 0.283566 0.528146 0.291941 0.523933 C 0.29998 0.519742 0.307966 0.515363 0.315904 0.510837 C 0.326336 0.504872 0.33664 0.498483 0.34676 0.491598 C 0.359016 0.483185 0.371008 0.473991 0.382319 0.463405 C 0.388955 0.457103 0.395458 0.450519 0.401552 0.443276 C 0.408068 0.43562 0.414195 0.427342 0.419765 0.418421 C 0.430156 0.401718 0.438557 0.382639 0.443885 0.361993 C 0.446764 0.350632 0.44894 0.338952 0.450584 0.327151 C 0.452996 0.309677 0.454016 0.291844 0.453538 0.274075 C 0.453394 0.267123 0.453 0.260182 0.452421 0.253273 C 0.451779 0.245648 0.450881 0.238063 0.449739 0.230548 C 0.447349 0.214554 0.443682 0.19893 0.439012 0.183893 C 0.43619 0.17486 0.432983 0.166052 0.429427 0.157507 C 0.425384 0.147864 0.421015 0.138453 0.416085 0.12959 C 0.411222 0.120787 0.405893 0.112456 0.400161 0.104671 C 0.396661 0.0999305 0.392998 0.0954176 0.389309 0.0909499 C 0.383582 0.0840708 0.377723 0.0773948 0.371747 0.0709169 C 0.364117 0.0626771 0.356172 0.05497 0.347961 0.0478284 C 0.340299 0.0412118 0.332413 0.0350573 0.324298 0.0295097 C 0.304335 0.0159431 0.282832 0.00622895 0.26065 0.00225767 C 0.250216 0.000408579 0.239674 0.000207856 0.229165 0.000123393 C 0.22771 0.00013478 0.226256 0.00014617 0.224801 0.000157557 Z" id="path1" style="fill:#fec709;fill-opacity:1"></svg:path>
</svg:g></g>
<svg:text clip-path="url(#8-back_clipPath16)" id="8-back_text15" transform="matrix(1.3333333,0,0,1.3333333,191.31733,95.542667)" xml:space="preserve"><svg:tspan id="8-back_tspan15" sodipodi:role="line" style="font-variant:normal;font-weight:normal;font-size:18px;writing-mode:lr-tb;fill:#ffffff;fill-opacity:1;fill-rule:nonzero;stroke:none" x="0 8.8199997 18.774 28.872 38.970001 48.689999 53.189999" y="0">Lobby fi</svg:tspan><svg:tspan id="8-back_tspan16" sodipodi:role="line" style="font-variant:normal;font-weight:normal;font-size:18px;writing-mode:lr-tb;fill:#ffffff;fill-opacity:1;fill-rule:nonzero;stroke:none" x="67.410004 77.778 88.110001 98.477997 108.09 113.022 122.49" y="0">nancier</svg:tspan></svg:text>
<svg:text clip-path="url(#8-back_clipPath18)" id="8-back_text16" transform="matrix(1.3333333,0,0,1.3333333,45.354267,174.36667)" xml:space="preserve"><svg:tspan id="8-back_tspan17" sodipodi:role="line" style="font-variant:normal;font-weight:normal;font-size:12px;writing-mode:lr-tb;fill:#231f20;fill-opacity:1;fill-rule:nonzero;stroke:none" x="0 5.6999998 12.048 14.688 17.591999 23.988001 30.431999 36.875999 42.348 44.987999" y="0">Le lobby fi</svg:tspan><svg:tspan id="8-back_tspan18" sodipodi:role="line" style="font-variant:normal;font-weight:normal;font-size:12px;writing-mode:lr-tb;fill:#231f20;fill-opacity:1;fill-rule:nonzero;stroke:none" x="51.683998 58.212002 64.5 71.028 77.195999 80.028 86.375999 90.155998 92.795998 99.348 103.62 106.452 109.356 112.188 118.116 124.464 127.104 133.56 139.908 145.836 148.476 157.62 164.01601 169.48801 175.836 182.364 188.29201 190.93201 197.388 203.73599 212.88 219.228 225.15601 231.70799 235.48801 241.836 247.76401 250.40401 256.85999 263.25601 269.80801 273.58801 276.228 280.17599 286.46399 289.29599 293.07599 299.42401 302.064 308.41199 314.57999 321.108 327.504 334.056 340.40399 344.18399" y="0">nancier utilise des moyens démesurés pour faire échouer </svg:tspan></svg:text>
<svg:text clip-path="url(#8-back_clipPath19)" id="8-back_text18" transform="matrix(1.3333333,0,0,1.3333333,45.354267,193.56667)" xml:space="preserve"><svg:tspan id="8-back_tspan19" sodipodi:role="line" style="font-variant:normal;font-weight:normal;font-size:12px;writing-mode:lr-tb;fill:#231f20;fill-opacity:1;fill-rule:nonzero;stroke:none" x="0 2.904 9.2519999 15.18 17.82 22.091999 28.440001 34.967999 39.240002 45.528 49.799999 52.632 58.175999 64.524002 70.452003 73.092003 79.547997 85.896004 88.536003 92.316002 98.664001 105.108 111.66 114.564 120.852 125.124 127.956 134.35201 140.88 143.52 149.976 156.32401 162.252 164.892 174.036 180.32401 184.104 190.272 196.8 203.14799 209.076" y="0">les tentatives de régulation des marchés.</svg:tspan></svg:text>
<svg:text clip-path="url(#8-back_clipPath21)" id="8-back_text19" transform="matrix(1.3333333,0,0,1.3333333,45.354267,228.76667)" xml:space="preserve"><svg:tspan id="8-back_tspan20" sodipodi:role="line" style="font-variant:normal;font-weight:normal;font-size:12px;writing-mode:lr-tb;fill:#231f20;fill-opacity:1;fill-rule:nonzero;stroke:none" x="0 6.5040002 9.1440001 13.416 16.247999 20.52 24.299999 30.648001 33.287998 39.743999 42.528 48.875999 54.155998 60.504002 69.648003 76.103996 79.008003 85.356003 88.727997 91.367996 97.823997 104.22 110.772 114.552 117.192 120.024 126.552" y="0">A titre d’exemple, pour infl</svg:tspan><svg:tspan id="8-back_tspan21" sodipodi:role="line" style="font-variant:normal;font-weight:normal;font-size:12px;writing-mode:lr-tb;fill:#231f20;fill-opacity:1;fill-rule:nonzero;stroke:none" x="133.25999 139.812 146.16 152.688 158.856 165.20399 168.98399 171.62399 174.528 180.81599 183.45599 186.36 192.756 195.588 198.228 204.828 211.224 217.67999 224.136 229.584 235.59599 239.37601 245.664 252.192 258.35999 264.34799 266.98801 273.444 279.79199 282.43201 288.63599 294.84 301.09201 307.29599 309.936 316.392 322.78799 329.34 333.12" y="0">uencer la loi Dodd-Franck de 2010 pour </svg:tspan></svg:text>
<svg:text clip-path="url(#8-back_clipPath24)" id="8-back_text21" transform="matrix(1.3333333,0,0,1.3333333,45.354267,247.96667)" xml:space="preserve"><svg:tspan id="8-back_tspan22" sodipodi:role="line" style="font-variant:normal;font-weight:normal;font-size:12px;writing-mode:lr-tb;fill:#231f20;fill-opacity:1;fill-rule:nonzero;stroke:none" x="0 3.78 10.128 16.572001 23.124001 26.028 32.375999 36.155998 38.796001 41.700001 48.048 53.976002 56.616001 65.760002 72.047997 75.828003 81.996002 88.524002 94.872002 100.8 103.44" y="0">réguler les marchés fi</svg:tspan><svg:tspan id="8-back_tspan23" sodipodi:role="line" style="font-variant:normal;font-weight:normal;font-size:12px;writing-mode:lr-tb;fill:#231f20;fill-opacity:1;fill-rule:nonzero;stroke:none" x="110.136 116.664 122.952 129.48 135.64799 138.48 144.828 148.608 154.536 157.17599 163.464 170.01601 175.29601 177.936 184.40401 190.65601 197.16 200.532 203.172 206.076 212.424 218.35201 220.992" y="0">nanciers aux USA, les fi</svg:tspan><svg:tspan id="8-back_tspan24" sodipodi:role="line" style="font-variant:normal;font-weight:normal;font-size:12px;writing-mode:lr-tb;fill:#231f20;fill-opacity:1;fill-rule:nonzero;stroke:none" x="227.688 234.216 240.504 247.032 253.2 256.03201 262.38 266.16 272.08801 274.728 281.18399 287.53201 290.172 299.48401 305.772 308.67599 311.57999 314.22 320.47198 324.74399 328.52399 334.87201 341.22 345.492" y="0">nanciers de Wall Street </svg:tspan></svg:text>
<svg:text clip-path="url(#8-back_clipPath25)" id="8-back_text24" transform="matrix(1.3333333,0,0,1.3333333,45.354267,267.1668)" xml:space="preserve"><svg:tspan id="8-back_tspan25" sodipodi:role="line" style="font-variant:normal;font-weight:normal;font-size:12px;writing-mode:lr-tb;fill:#231f20;fill-opacity:1;fill-rule:nonzero;stroke:none" x="0 6.4559999 9.2880001 15.216 21.672001 28.068001 33.995998 40.284 43.116001 49.464001 55.992001 60.264 62.903999 69.360001 75.708 78.348 84.552002 90.755997 93.396004 97.344002 103.74 106.572 112.5 115.14 121.596 124.5 131.052 136.98 139.62 146.076 152.424 155.064 157.968 164.364 170.808 177.252 182.724 185.556 191.48399 195.756 202.104 208.032 210.672 217.02 221.29201 223.93201 230.388 236.73599 239.37601 245.58 251.784 254.424 258.37201 264.76801 267.60001 273.52802 276.168 282.62399 285.52802 292.07999 298.008 300.64801 307.104 313.452" y="0">disposaient de 20 fois plus de lobbyistes et de 45 fois plus de </svg:tspan></svg:text>
<svg:text clip-path="url(#8-back_clipPath27)" id="8-back_text25" transform="matrix(1.3333333,0,0,1.3333333,45.354267,286.3668)" xml:space="preserve"><svg:tspan id="8-back_tspan26" sodipodi:role="line" style="font-variant:normal;font-weight:normal;font-size:12px;writing-mode:lr-tb;fill:#231f20;fill-opacity:1;fill-rule:nonzero;stroke:none" x="0 9.1440001 15.54 21.011999 27.360001 33.888 39.816002 42.456001" y="0">moyens fi</svg:tspan><svg:tspan id="8-back_tspan27" sodipodi:role="line" style="font-variant:normal;font-weight:normal;font-size:12px;writing-mode:lr-tb;fill:#231f20;fill-opacity:1;fill-rule:nonzero;stroke:none" x="49.152 55.68 61.967999 68.496002 74.664001 77.496002 83.844002 87.624001 93.552002 96.192001 102.636 109.188 115.536 118.176 121.08 127.428 133.356 135.996 142.392 146.172 152.616 158.90401 165.43201 168.26401 174.192 180.48 184.752 187.584 193.98 200.508 206.436 209.076 215.532 221.88 224.52 227.424 233.71201 236.35201 242.28 248.67599 254.84399 257.67599 264.02399 268.29599 274.64401 277.284 283.452 286.284 291.828 294.66 297.564 303.91199 307.284 309.92401 316.09201 322.44 325.07999 331.52399 338.07599 340.90799 343.548 349.836" y="0">nanciers que les organisations de la société civile, ce qui a </svg:tspan></svg:text>
<svg:text clip-path="url(#8-back_clipPath28)" id="8-back_text27" transform="matrix(1.3333333,0,0,1.3333333,45.354267,305.5668)" xml:space="preserve"><svg:tspan id="8-back_tspan28" sodipodi:role="line" style="font-variant:normal;font-weight:normal;font-size:12px;writing-mode:lr-tb;fill:#231f20;fill-opacity:1;fill-rule:nonzero;stroke:none" x="0 6.1680002 12.564 19.091999 25.548 32.099998 34.931999 39.203999 41.844002 48.132 50.771999 54.720001 61.116001 64.896004 69.167999 75.515999 84.660004 91.008003 97.536003 101.808 104.448 110.736 115.008 119.28 125.628 132.15601 138.70799 145.056 148.836 151.476 154.38 160.728 166.65601 169.29601 175.644 179.592 183.53999 189.888 194.16 200.088 202.728 206.508 212.856 219.3 225.85201 228.756 235.04401 239.31599 245.664 252.216 255.996 261.92401 264.564 271.01999 277.36801 280.008 282.91199 289.20001 291.84 294.74399 301.14001 303.97198" y="0">conduit à fortement atténuer les effets régulateurs de la loi.</svg:tspan></svg:text>
<svg:text clip-path="url(#8-back_clipPath29)" id="8-back_text28" transform="matrix(1.3333333,0,0,1.3333333,240.26,356.0688)" xml:space="preserve"><svg:tspan id="8-back_tspan29" sodipodi:role="line" style="font-variant:normal;font-weight:normal;font-size:8px;writing-mode:lr-tb;fill:#737373;fill-opacity:1;fill-rule:nonzero;stroke:none" x="0 4.04 8.2320004 10.728 14.688 16.559999 20.792 25.152 27.152 31.455999 35.832001 37.832001 41.976002 43.976002 45.863998 50.240002 52.112 56.472 58.472 62.599998 66.760002 70.888" y="0">Version du 5 juin 2023</svg:tspan></svg:text>
<svg:path clip-path="url(#8-back_clipPath31)" d="m 70.1205,36.8504 h 315.391 V 61.5288 H 70.1205 Z" id="8-back_path30" style="fill:#ffffff;fill-opacity:1;fill-rule:evenodd;stroke:none" transform="matrix(1.3333333,0,0,-1.3333333,0,396.85067)"/>
<svg:text clip-path="url(#8-back_clipPath32)" id="8-back_text31" transform="matrix(1.3333333,0,0,1.3333333,93.494,335.0672)" xml:space="preserve"><svg:tspan id="8-back_tspan31" sodipodi:role="line" style="font-variant:normal;font-weight:normal;font-size:8px;writing-mode:lr-tb;fill:#0a0000;fill-opacity:1;fill-rule:nonzero;stroke:none" x="0 4.1760001 6.6719999 10.864 15.168 17.040001 19.864 21.864 26.167999 30.528 34.759998 37.584 41.816002 43.816002 48.152 52.528 56.832001 61.208 65.167999 67.991997 69.991997 74.295998 78.487999 80.487999 84.760002 86.632004 90.711998 95.071999 99.264 101.168 103.04 107.232 111.608 113.608 115.512 117.384 121.464 125.656 130.01601 134.09599 138.28799 140.28799 144.504 148.696 152.17599 156.368" y="0">Crédit photo August de Richelieu licence Pexel</svg:tspan></svg:text>
</svg:g>
</svg:svg>